what,kind,bundleId,bundleVersion,description,time
started,bundle,org.eclipse.jsch.core,1.1.200.I20100505-1245,"org.eclipse.jsch.core",1390850985146
started,bundle,org.eclipse.jst.common.project.facet.core,1.4.102.v201008182136,"org.eclipse.jst.common.project.facet.core",1390850985146
started,bundle,org.eclipse.jst.j2ee.navigator.ui,1.1.403.v201012020600,"org.eclipse.jst.j2ee.navigator.ui",1390850985147
started,bundle,org.eclipse.jst.j2ee.ui,1.1.404.v201101122300,"org.eclipse.jst.j2ee.ui",1390850985148
started,bundle,org.eclipse.jst.j2ee.webservice,1.1.400.v201004110600,"org.eclipse.jst.j2ee.webservice",1390850985149
started,bundle,org.eclipse.jst.j2ee.webservice.ui,1.1.400.v201004110600,"org.eclipse.jst.j2ee.webservice.ui",1390850985150
started,bundle,org.eclipse.jst.jee.ui,1.0.304.v201101272100,"org.eclipse.jst.jee.ui",1390850985150
started,bundle,org.eclipse.jst.jsf.common,1.2.2.v201101211220,"org.eclipse.jst.jsf.common",1390850985150
started,bundle,org.eclipse.jst.jsf.core,1.3.3.v201102021253,"org.eclipse.jst.jsf.core",1390850985152
started,bundle,org.eclipse.jst.jsf.facelet.ui,1.0.0.v20100602,"org.eclipse.jst.jsf.facelet.ui",1390850985152
started,bundle,org.eclipse.jst.jsf.ui,1.3.1.v20100906,"org.eclipse.jst.jsf.ui",1390850985153
started,bundle,org.eclipse.jst.server.core,1.2.101.v20100421,"org.eclipse.jst.server.core",1390850985154
started,bundle,org.eclipse.jst.server.tomcat.core,1.1.203.v20110201,"org.eclipse.jst.server.tomcat.core",1390850985154
started,bundle,org.eclipse.jst.ws.jaxrs.core,1.0.201.v201011231540,"org.eclipse.jst.ws.jaxrs.core",1390850985155
started,bundle,org.eclipse.jst.ws.jaxws.utils,1.0.0.v201004171919,"org.eclipse.jst.ws.jaxws.utils",1390850985156
started,bundle,org.eclipse.mylyn.bugzilla.core,3.4.2.v20100902-0100-e3x,"org.eclipse.mylyn.bugzilla.core",1390850985156
started,bundle,org.eclipse.mylyn.bugzilla.ui,3.4.3.v20110131-0100-e3x,"org.eclipse.mylyn.bugzilla.ui",1390850985157
started,bundle,org.eclipse.mylyn.commons.net,3.4.1.v20100625-2100-e3x,"org.eclipse.mylyn.commons.net",1390850985157
started,bundle,org.eclipse.mylyn.commons.ui,3.4.0.v20100608-0100-e3x,"org.eclipse.mylyn.commons.ui",1390850985157
started,bundle,org.eclipse.mylyn.context.core,3.4.1.v20100909-0100-e3x,"org.eclipse.mylyn.context.core",1390850985158
started,bundle,org.eclipse.mylyn.context.ui,3.4.2.v20110131-0100-e3x,"org.eclipse.mylyn.context.ui",1390850985159
started,bundle,org.eclipse.mylyn.monitor.ui,3.4.1.v20110131-0100-e3x,"org.eclipse.mylyn.monitor.ui",1390850985159
started,bundle,org.eclipse.mylyn.tasks.ui,3.4.3.v20110131-0100-e3x,"org.eclipse.mylyn.tasks.ui",1390850985160
started,bundle,org.eclipse.mylyn.team.ui,3.4.3.v20110131-0100-e3x,"org.eclipse.mylyn.team.ui",1390850985160
started,bundle,org.eclipse.team.core,3.5.101.R36x_v20110203-1036,"org.eclipse.team.core",1390850985161
started,bundle,org.eclipse.team.cvs.core,3.3.301.R36x_v20110119-0815,"org.eclipse.team.cvs.core",1390850985161
started,bundle,org.eclipse.team.cvs.ui,3.3.302.R36x_v20110203-1036,"org.eclipse.team.cvs.ui",1390850985162
started,bundle,org.eclipse.team.ui,3.5.102.R36x_v20110203-1036,"org.eclipse.team.ui",1390850985162
started,bundle,org.eclipse.ui,3.6.2.M20110203-1100,"org.eclipse.ui",1390850985164
started,bundle,org.eclipse.ui.console,3.5.0.v20100526,"org.eclipse.ui.console",1390850985164
started,bundle,org.eclipse.ui.editors,3.6.1.r361_v20100825-0800,"org.eclipse.ui.editors",1390850985164
started,bundle,org.eclipse.ui.forms,3.5.2.r36_v20100702,"org.eclipse.ui.forms",1390850985165
started,bundle,org.eclipse.ui.ide,3.6.2.M20101201-0800,"org.eclipse.ui.ide",1390850985166
started,bundle,org.eclipse.ui.navigator,3.5.0.I20100601-0800,"org.eclipse.ui.navigator",1390850985167
started,bundle,org.eclipse.ui.navigator.resources,3.4.202.M20101124-0800,"org.eclipse.ui.navigator.resources",1390850985168
started,bundle,org.eclipse.ui.net,1.2.100.I20100505-1245,"org.eclipse.ui.net",1390850985168
started,bundle,org.eclipse.ui.views,3.5.1.M20110202-0800,"org.eclipse.ui.views",1390850985169
started,bundle,org.eclipse.ui.workbench,3.6.2.M20110210-1200,"org.eclipse.ui.workbench",1390850985169
started,bundle,org.eclipse.ui.workbench.texteditor,3.6.1.r361_v20100714-0800,"org.eclipse.ui.workbench.texteditor",1390850985170
started,bundle,org.eclipse.update.configurator,3.3.100.v20100512,"org.eclipse.update.configurator",1390850985171
started,bundle,org.eclipse.update.core,3.2.402.R36x_v20100629,"org.eclipse.update.core",1390850985172
started,bundle,org.eclipse.update.scheduler,3.2.300.v20100512,"org.eclipse.update.scheduler",1390850985172
started,bundle,org.eclipse.wst.common.core,1.2.0.v200908252030,"org.eclipse.wst.common.core",1390850985173
started,bundle,org.eclipse.wst.common.emf,1.2.3.v201012100400,"org.eclipse.wst.common.emf",1390850985173
started,bundle,org.eclipse.wst.common.frameworks.ui,1.2.0.v201004080500,"org.eclipse.wst.common.frameworks.ui",1390850985174
started,bundle,org.eclipse.wst.common.project.facet.core,1.4.102.v201008170019,"org.eclipse.wst.common.project.facet.core",1390850985174
started,bundle,org.eclipse.wst.common.ui,1.1.500.v200911190730,"org.eclipse.wst.common.ui",1390850985175
started,bundle,org.eclipse.wst.common.uriresolver,1.1.401.v201004280700,"org.eclipse.wst.common.uriresolver",1390850985175
started,bundle,org.eclipse.wst.css.ui,1.0.502.v201101122002,"org.eclipse.wst.css.ui",1390850985176
started,bundle,org.eclipse.wst.dtd.ui,1.0.500.v201004290328,"org.eclipse.wst.dtd.ui",1390850985177
started,bundle,org.eclipse.wst.jsdt.manipulation,1.0.200.v201004150600,"org.eclipse.wst.jsdt.manipulation",1390850985177
started,bundle,oracle.eclipse.tools.common,3.2.3.201107052022,"oracle.eclipse.tools.common",1390850985177
started,bundle,oracle.eclipse.tools.common.ui,3.2.3.201107052022,"oracle.eclipse.tools.common.ui",1390850985178
started,bundle,oracle.eclipse.tools.common.upgrade,3.2.3.201107052022,"oracle.eclipse.tools.common.upgrade",1390850985179
started,bundle,oracle.eclipse.tools.envcheck,3.2.3.201107052022,"oracle.eclipse.tools.envcheck",1390850985179
started,bundle,oracle.eclipse.tools.weblogic,3.2.3.201107052022,"oracle.eclipse.tools.weblogic",1390850985179
started,bundle,oracle.eclipse.tools.weblogic.ui,3.2.3.201107052022,"oracle.eclipse.tools.weblogic.ui",1390850985180
started,bundle,oracle.eclipse.tools.xmlbeans,3.2.3.201107052022,"oracle.eclipse.tools.xmlbeans",1390850985180
started,bundle,org.eclipse.core.jobs,3.5.1.R36x_v20100824-p001,"org.eclipse.core.jobs",1390850985180
started,bundle,org.eclipse.sapphire.modeling,0.2.3.201106221307,"org.eclipse.sapphire.modeling",1390850985181
started,bundle,org.eclipse.jem,2.0.402.v201106132000,"org.eclipse.jem",1390850985182
started,bundle,org.eclipse.jem.workbench,2.0.301.v201104271300,"org.eclipse.jem.workbench",1390850985182
started,bundle,org.eclipse.jst.common.frameworks,1.1.404.v201103311600,"org.eclipse.jst.common.frameworks",1390850985183
started,bundle,org.eclipse.jst.j2ee,1.1.406.v201110130300,"org.eclipse.jst.j2ee",1390850985184
started,bundle,org.eclipse.jst.j2ee.core,1.2.7.v201110060300,"org.eclipse.jst.j2ee.core",1390850985185
started,bundle,org.eclipse.jst.j2ee.web,1.1.405.v201110130300,"org.eclipse.jst.j2ee.web",1390850985186
started,bundle,org.eclipse.jst.jee,1.0.303.v201103311600,"org.eclipse.jst.jee",1390850985186
started,bundle,org.eclipse.jst.jsp.core,1.2.308.v201109202150,"org.eclipse.jst.jsp.core",1390850985237
started,bundle,org.eclipse.jst.jsp.ui,1.1.505.v201110211728,"org.eclipse.jst.jsp.ui",1390850985238
started,bundle,org.eclipse.wst.common.emfworkbench.integration,1.2.4.v201106210700,"org.eclipse.wst.common.emfworkbench.integration",1390850985240
started,bundle,org.eclipse.wst.common.frameworks,1.2.1.v201107271600,"org.eclipse.wst.common.frameworks",1390850985242
started,bundle,org.eclipse.wst.common.modulecore,1.2.7.v201110060300,"org.eclipse.wst.common.modulecore",1390850985244
started,bundle,org.eclipse.wst.css.core,1.1.403.v201103021532,"org.eclipse.wst.css.core",1390850985246
started,bundle,org.eclipse.wst.html.core,1.1.406.v201109271810,"org.eclipse.wst.html.core",1390850985247
started,bundle,org.eclipse.wst.html.ui,1.0.505.v201106160200,"org.eclipse.wst.html.ui",1390850985249
started,bundle,org.eclipse.wst.jsdt.core,1.1.8.v201109150205,"org.eclipse.wst.jsdt.core",1390850985252
started,bundle,org.eclipse.wst.jsdt.ui,1.1.7.v201109150205,"org.eclipse.wst.jsdt.ui",1390850985252
started,bundle,org.eclipse.wst.jsdt.web.core,1.0.306.v201110262304,"org.eclipse.wst.jsdt.web.core",1390850985254
started,bundle,org.eclipse.wst.jsdt.web.support.jsp,1.0.304.v201110211728,"org.eclipse.wst.jsdt.web.support.jsp",1390850985256
started,bundle,org.eclipse.wst.jsdt.web.ui,1.0.305.v201110211728,"org.eclipse.wst.jsdt.web.ui",1390850985258
started,bundle,org.eclipse.wst.server.core,1.1.208.v20111005_1734,"org.eclipse.wst.server.core",1390850985260
started,bundle,org.eclipse.wst.server.ui,1.1.209.v20111005_1716,"org.eclipse.wst.server.ui",1390850985262
started,bundle,org.eclipse.wst.sse.core,1.1.506.v201110201853,"org.eclipse.wst.sse.core",1390850985264
started,bundle,org.eclipse.wst.sse.ui,1.2.5.v201108191505,"org.eclipse.wst.sse.ui",1390850985267
started,bundle,org.eclipse.wst.validation,1.2.204.v201109220700,"org.eclipse.wst.validation",1390850985267
started,bundle,org.eclipse.wst.web,1.1.403.v201103081400,"org.eclipse.wst.web",1390850985269
started,bundle,org.eclipse.wst.wsdl,1.2.105.v201108291616,"org.eclipse.wst.wsdl",1390850985269
started,bundle,org.eclipse.wst.xml.core,1.1.505.v201109271810,"org.eclipse.wst.xml.core",1390850985270
started,bundle,org.eclipse.wst.xml.ui,1.1.105.v201106142156,"org.eclipse.wst.xml.ui",1390850985270
os,sysinfo,,,"win32",1390850985273
arch,sysinfo,,,"x86",1390850985273
ws,sysinfo,,,"win32",1390850985273
locale,sysinfo,,,"en_US",1390850985273
processors,sysinfo,,,"4",1390850985274
java.runtime.name,sysinfo,,,"Java(TM) SE Runtime Environment",1390850985274
java.runtime.version,sysinfo,,,"1.7.0_45-b18",1390850985274
java.specification.name,sysinfo,,,"Java Platform API Specification",1390850985274
java.specification.vendor,sysinfo,,,"Oracle Corporation",1390850985274
java.specification.version,sysinfo,,,"1.7",1390850985274
java.vendor,sysinfo,,,"Oracle Corporation",1390850985274
java.version,sysinfo,,,"1.7.0_45",1390850985274
java.vm.info,sysinfo,,,"mixed mode, sharing",1390850985274
java.vm.name,sysinfo,,,"Java HotSpot(TM) Client VM",1390850985274
java.vm.specification.name,sysinfo,,,"Java Virtual Machine Specification",1390850985274
java.vm.specification.vendor,sysinfo,,,"Oracle Corporation",1390850985274
java.vm.specification.version,sysinfo,,,"1.7",1390850985274
java.vm.vendor,sysinfo,,,"Oracle Corporation",1390850985274
java.vm.version,sysinfo,,,"24.45-b08",1390850985274
started,bundle,org.eclipse.core.variables,3.2.400.v20100505,"org.eclipse.core.variables",1390850986151
started,bundle,org.eclipse.epp.usagedata.ui,1.3.1.R201102081640,"org.eclipse.epp.usagedata.ui",1390850988767
deactivated,workbench,org.eclipse.ui.workbench,3.6.2.M20110210-1200,"",1390850989442
started,bundle,org.eclipse.jdt.apt.core,3.3.402.R36_v20110120-1000,"org.eclipse.jdt.apt.core",1390850995632
started,bundle,org.eclipse.jdt.apt.pluggable.core,1.0.301.R36_v20100727-0110,"org.eclipse.jdt.apt.pluggable.core",1390850995637
started,bundle,org.eclipse.wst.dtd.core,1.1.402.v201109061850,"org.eclipse.wst.dtd.core",1390850995881
started,bundle,org.eclipse.wst.wsdl.validation,1.1.501.v201004201506,"org.eclipse.wst.wsdl.validation",1390850995921
started,bundle,org.eclipse.wst.xsd.core,1.1.503.v201011121919,"org.eclipse.wst.xsd.core",1390850995924
started,bundle,org.eclipse.wst.xsl.core,1.1.0.v201004290328,"org.eclipse.wst.xsl.core",1390850995928
activated,workbench,org.eclipse.ui.workbench,3.6.2.M20110210-1200,"",1390851500623
activated,view,org.eclipse.ui.navigator.resources,3.4.202.M20101124-0800,"org.eclipse.ui.navigator.ProjectExplorer",1390851502118
started,bundle,org.eclipse.wst.ws.service.policy.ui,1.0.203.v201109140236,"org.eclipse.wst.ws.service.policy.ui",1390851502989
started,bundle,org.eclipse.wst.ws.service.policy,1.0.204.v201011011834,"org.eclipse.wst.ws.service.policy",1390851503011
started,bundle,org.eclipse.wst.command.env,1.0.409.v201004211805,"org.eclipse.wst.command.env",1390851503072
started,bundle,org.eclipse.wst.ws,1.1.203.v201004211805,"org.eclipse.wst.ws",1390851503073
started,bundle,org.eclipse.compare,3.5.101.R36x_v20100929-0800,"org.eclipse.compare",1390851503193
started,bundle,oracle.eclipse.tools.webservices,3.2.3.201107052022,"oracle.eclipse.tools.webservices",1390851505172
deactivated,workbench,org.eclipse.ui.workbench,3.6.2.M20110210-1200,"",1390851506204
started,bundle,org.eclipse.jst.server.preview.adapter,1.1.100.v20100308,"org.eclipse.jst.server.preview.adapter",1390851508179
activated,workbench,org.eclipse.ui.workbench,3.6.2.M20110210-1200,"",1390851512287
executed,command,org.eclipse.wst.server.ui,1.1.209.v20111005_1716,"org.eclipse.wst.server.launchShortcut.run",1390851512500
started,bundle,org.eclipse.jst.server.tomcat.ui,1.1.200.v20100418,"org.eclipse.jst.server.tomcat.ui",1390851512612
opened,view,org.eclipse.wst.server.ui,1.1.209.v20111005_1716,"org.eclipse.wst.server.ui.ServersView",1390851513031
deactivated,workbench,org.eclipse.ui.workbench,3.6.2.M20110210-1200,"",1390851513399
started,bundle,org.eclipse.jdt.debug,3.6.1.v20100715_r361,"org.eclipse.jdt.debug",1390851513769
activated,workbench,org.eclipse.ui.workbench,3.6.2.M20110210-1200,"",1390851513868
activated,view,org.eclipse.wst.server.ui,1.1.209.v20111005_1716,"org.eclipse.wst.server.ui.ServersView",1390851513877
started,bundle,org.eclipse.jdt.debug.ui,3.5.2.v20100928a_r362,"org.eclipse.jdt.debug.ui",1390851515269
opened,view,org.eclipse.ui.console,3.5.0.v20100526,"org.eclipse.ui.console.ConsoleView",1390851517664
activated,view,org.eclipse.ui.console,3.5.0.v20100526,"org.eclipse.ui.console.ConsoleView",1390851517777
activated,view,org.eclipse.wst.server.ui,1.1.209.v20111005_1716,"org.eclipse.wst.server.ui.ServersView",1390851522977
started,bundle,org.eclipse.ui.browser,3.3.1.r36_20101216,"org.eclipse.ui.browser",1390851523139
opened,editor,org.eclipse.ui.browser,3.3.1.r36_20101216,"org.eclipse.ui.browser.editor",1390851523687
activated,editor,org.eclipse.ui.browser,3.3.1.r36_20101216,"org.eclipse.ui.browser.editor",1390851523786
deactivated,workbench,org.eclipse.ui.workbench,3.6.2.M20110210-1200,"",1390851529800
activated,workbench,org.eclipse.ui.workbench,3.6.2.M20110210-1200,"",1390851530411
executed,command,org.eclipse.ui,3.6.2.M20110203-1100,"org.eclipse.ui.edit.copy",1390851531615
executed,command,org.eclipse.ui,3.6.2.M20110203-1100,"org.eclipse.ui.edit.copy",1390851531807
executed,command,org.eclipse.ui,3.6.2.M20110203-1100,"org.eclipse.ui.edit.copy",1390851532039
deactivated,workbench,org.eclipse.ui.workbench,3.6.2.M20110210-1200,"",1390851532648
activated,workbench,org.eclipse.ui.workbench,3.6.2.M20110210-1200,"",1390851541806
activated,view,org.eclipse.ui.console,3.5.0.v20100526,"org.eclipse.ui.console.ConsoleView",1390851541813
deactivated,workbench,org.eclipse.ui.workbench,3.6.2.M20110210-1200,"",1390851555471
activated,workbench,org.eclipse.ui.workbench,3.6.2.M20110210-1200,"",1390851823483
deactivated,workbench,org.eclipse.ui.workbench,3.6.2.M20110210-1200,"",1390851824336
activated,workbench,org.eclipse.ui.workbench,3.6.2.M20110210-1200,"",1390851839368
activated,view,org.eclipse.ui.navigator.resources,3.4.202.M20101124-0800,"org.eclipse.ui.navigator.ProjectExplorer",1390851840941
started,bundle,org.eclipse.jst.ws.jaxws.dom.integration,1.0.0.v201004171919,"org.eclipse.jst.ws.jaxws.dom.integration",1390851840951
started,bundle,org.eclipse.jst.ws.jaxws.dom.ui,1.0.0.v201004171919,"org.eclipse.jst.ws.jaxws.dom.ui",1390851840956
started,bundle,org.eclipse.jst.j2ee.ejb,1.1.402.v201102071010,"org.eclipse.jst.j2ee.ejb",1390851840979
started,bundle,org.eclipse.jst.j2ee.jca,1.1.400.v201005270700,"org.eclipse.jst.j2ee.jca",1390851840986
started,bundle,org.eclipse.jst.jee.ejb,1.0.301.v201007070821,"org.eclipse.jst.jee.ejb",1390851840989
started,bundle,org.eclipse.jst.jee.web,1.0.301.v201007070907,"org.eclipse.jst.jee.web",1390851840991
started,bundle,org.eclipse.xsd,2.6.0.v20100914-1218,"org.eclipse.xsd",1390851841069
started,bundle,org.eclipse.jst.servlet.ui,1.1.404.v201101270100,"org.eclipse.jst.servlet.ui",1390851841196
started,bundle,oracle.eclipse.tools.webservices.ui,3.2.3.201107052022,"oracle.eclipse.tools.webservices.ui",1390851847290
started,bundle,org.eclipse.ltk.core.refactoring,3.5.101.r362_v20101117-0800,"org.eclipse.ltk.core.refactoring",1390851850630
deactivated,workbench,org.eclipse.ui.workbench,3.6.2.M20110210-1200,"",1390851853161
activated,workbench,org.eclipse.ui.workbench,3.6.2.M20110210-1200,"",1390851855796
executed,command,org.eclipse.ui,3.6.2.M20110203-1100,"org.eclipse.ui.edit.paste",1390851860338
deactivated,workbench,org.eclipse.ui.workbench,3.6.2.M20110210-1200,"",1390851862868
activated,workbench,org.eclipse.ui.workbench,3.6.2.M20110210-1200,"",1390851863597
deactivated,workbench,org.eclipse.ui.workbench,3.6.2.M20110210-1200,"",1390851864496
activated,workbench,org.eclipse.ui.workbench,3.6.2.M20110210-1200,"",1390851917663
opened,editor,org.eclipse.jst.jsp.ui,1.1.505.v201110211728,"org.eclipse.jst.jsp.core.jspsource.source",1390851921613
activated,editor,org.eclipse.jst.jsp.ui,1.1.505.v201110211728,"org.eclipse.jst.jsp.core.jspsource.source",1390851921677
deactivated,workbench,org.eclipse.ui.workbench,3.6.2.M20110210-1200,"",1390851921738
activated,workbench,org.eclipse.ui.workbench,3.6.2.M20110210-1200,"",1390851926714
deactivated,workbench,org.eclipse.ui.workbench,3.6.2.M20110210-1200,"",1390851928105
activated,workbench,org.eclipse.ui.workbench,3.6.2.M20110210-1200,"",1390851929244
executed,command,org.eclipse.ui,3.6.2.M20110203-1100,"org.eclipse.ui.edit.paste",1390851932100
deactivated,workbench,org.eclipse.ui.workbench,3.6.2.M20110210-1200,"",1390851949900
activated,workbench,org.eclipse.ui.workbench,3.6.2.M20110210-1200,"",1390851952429
executed,command,org.eclipse.ui,3.6.2.M20110203-1100,"org.eclipse.ui.edit.paste",1390851955258
executed,command,org.eclipse.ui,3.6.2.M20110203-1100,"org.eclipse.ui.file.save",1390851955835
executed,command,org.eclipse.ui,3.6.2.M20110203-1100,"org.eclipse.ui.file.save",1390851964759
started,bundle,org.eclipse.mylyn.java.tasks,3.4.0.v20100608-0100-e3x,"org.eclipse.mylyn.java.tasks",1390851964946
started,bundle,org.eclipse.wst.xsl.exslt.core,1.0.0.v201005240426,"org.eclipse.wst.xsl.exslt.core",1390851966323
started,bundle,org.eclipse.wst.internet.cache,1.0.400.v201004280700,"org.eclipse.wst.internet.cache",1390851971643
executed,command,org.eclipse.ui,3.6.2.M20110203-1100,"org.eclipse.ui.edit.undo",1390851972334
executed,command,org.eclipse.ui,3.6.2.M20110203-1100,"org.eclipse.ui.file.save",1390851983595
deactivated,workbench,org.eclipse.ui.workbench,3.6.2.M20110210-1200,"",1390851984158
activated,workbench,org.eclipse.ui.workbench,3.6.2.M20110210-1200,"",1390851987390
deactivated,workbench,org.eclipse.ui.workbench,3.6.2.M20110210-1200,"",1390851992879
activated,workbench,org.eclipse.ui.workbench,3.6.2.M20110210-1200,"",1390851993807
activated,view,org.eclipse.ui.navigator.resources,3.4.202.M20101124-0800,"org.eclipse.ui.navigator.ProjectExplorer",1390851995257
deactivated,workbench,org.eclipse.ui.workbench,3.6.2.M20110210-1200,"",1390851997483
activated,workbench,org.eclipse.ui.workbench,3.6.2.M20110210-1200,"",1390851998419
executed,command,org.eclipse.wst.server.ui,1.1.209.v20111005_1716,"org.eclipse.wst.server.launchShortcut.run",1390851998497
opened,editor,org.eclipse.ui.browser,3.3.1.r36_20101216,"org.eclipse.ui.browser.editor",1390851998825
activated,editor,org.eclipse.ui.browser,3.3.1.r36_20101216,"org.eclipse.ui.browser.editor",1390851998884
executed,command,org.eclipse.ui,3.6.2.M20110203-1100,"org.eclipse.ui.edit.copy",1390851999977
executed,command,org.eclipse.ui,3.6.2.M20110203-1100,"org.eclipse.ui.edit.copy",1390852000175
activated,editor,org.eclipse.jst.jsp.ui,1.1.505.v201110211728,"org.eclipse.jst.jsp.core.jspsource.source",1390852000522
closed,editor,org.eclipse.ui.browser,3.3.1.r36_20101216,"org.eclipse.ui.browser.editor",1390852000522
executed,command,org.eclipse.ui,3.6.2.M20110203-1100,"org.eclipse.ui.file.close",1390852000595
activated,editor,org.eclipse.ui.browser,3.3.1.r36_20101216,"org.eclipse.ui.browser.editor",1390852001596
activated,editor,org.eclipse.jst.jsp.ui,1.1.505.v201110211728,"org.eclipse.jst.jsp.core.jspsource.source",1390852001935
closed,editor,org.eclipse.ui.browser,3.3.1.r36_20101216,"org.eclipse.ui.browser.editor",1390852001936
executed,command,org.eclipse.ui,3.6.2.M20110203-1100,"org.eclipse.ui.file.close",1390852002024
deactivated,workbench,org.eclipse.ui.workbench,3.6.2.M20110210-1200,"",1390852002636
activated,workbench,org.eclipse.ui.workbench,3.6.2.M20110210-1200,"",1390852007687
activated,view,org.eclipse.ui.console,3.5.0.v20100526,"org.eclipse.ui.console.ConsoleView",1390852007722
deactivated,workbench,org.eclipse.ui.workbench,3.6.2.M20110210-1200,"",1390852029876
activated,workbench,org.eclipse.ui.workbench,3.6.2.M20110210-1200,"",1390852053696
activated,editor,org.eclipse.jst.jsp.ui,1.1.505.v201110211728,"org.eclipse.jst.jsp.core.jspsource.source",1390852054437
deactivated,workbench,org.eclipse.ui.workbench,3.6.2.M20110210-1200,"",1390852058434
activated,workbench,org.eclipse.ui.workbench,3.6.2.M20110210-1200,"",1390852061943
executed,command,org.eclipse.ui,3.6.2.M20110203-1100,"org.eclipse.ui.file.save",1390852068939
deactivated,workbench,org.eclipse.ui.workbench,3.6.2.M20110210-1200,"",1390852069116
activated,workbench,org.eclipse.ui.workbench,3.6.2.M20110210-1200,"",1390852071090
activated,view,org.eclipse.ui.console,3.5.0.v20100526,"org.eclipse.ui.console.ConsoleView",1390852071113
deactivated,workbench,org.eclipse.ui.workbench,3.6.2.M20110210-1200,"",1390852092737
activated,workbench,org.eclipse.ui.workbench,3.6.2.M20110210-1200,"",1390852207368
deactivated,workbench,org.eclipse.ui.workbench,3.6.2.M20110210-1200,"",1390852209069
activated,workbench,org.eclipse.ui.workbench,3.6.2.M20110210-1200,"",1390852228724
activated,editor,org.eclipse.jst.jsp.ui,1.1.505.v201110211728,"org.eclipse.jst.jsp.core.jspsource.source",1390852229476
deactivated,workbench,org.eclipse.ui.workbench,3.6.2.M20110210-1200,"",1390852230748
activated,workbench,org.eclipse.ui.workbench,3.6.2.M20110210-1200,"",1390852234113
deactivated,workbench,org.eclipse.ui.workbench,3.6.2.M20110210-1200,"",1390852236379
activated,workbench,org.eclipse.ui.workbench,3.6.2.M20110210-1200,"",1390852237791
deactivated,workbench,org.eclipse.ui.workbench,3.6.2.M20110210-1200,"",1390852239284
activated,workbench,org.eclipse.ui.workbench,3.6.2.M20110210-1200,"",1390852239659
deactivated,workbench,org.eclipse.ui.workbench,3.6.2.M20110210-1200,"",1390852242492
activated,workbench,org.eclipse.ui.workbench,3.6.2.M20110210-1200,"",1390852258481
deactivated,workbench,org.eclipse.ui.workbench,3.6.2.M20110210-1200,"",1390852261114
activated,workbench,org.eclipse.ui.workbench,3.6.2.M20110210-1200,"",1390852262169
deactivated,workbench,org.eclipse.ui.workbench,3.6.2.M20110210-1200,"",1390852268204
activated,workbench,org.eclipse.ui.workbench,3.6.2.M20110210-1200,"",1390852270988
executed,command,org.eclipse.ui,3.6.2.M20110203-1100,"org.eclipse.ui.edit.paste",1390852276426
deactivated,workbench,org.eclipse.ui.workbench,3.6.2.M20110210-1200,"",1390852279458
activated,workbench,org.eclipse.ui.workbench,3.6.2.M20110210-1200,"",1390852280374
deactivated,workbench,org.eclipse.ui.workbench,3.6.2.M20110210-1200,"",1390852281258
activated,workbench,org.eclipse.ui.workbench,3.6.2.M20110210-1200,"",1390852283335
deactivated,workbench,org.eclipse.ui.workbench,3.6.2.M20110210-1200,"",1390852284097
activated,workbench,org.eclipse.ui.workbench,3.6.2.M20110210-1200,"",1390852285441
deactivated,workbench,org.eclipse.ui.workbench,3.6.2.M20110210-1200,"",1390852287338
activated,workbench,org.eclipse.ui.workbench,3.6.2.M20110210-1200,"",1390852288248
executed,command,org.eclipse.ui.workbench.texteditor,3.6.1.r361_v20100714-0800,"org.eclipse.ui.edit.text.goto.lineStart",1390852290318
deactivated,workbench,org.eclipse.ui.workbench,3.6.2.M20110210-1200,"",1390852293026
activated,workbench,org.eclipse.ui.workbench,3.6.2.M20110210-1200,"",1390852294375
deactivated,workbench,org.eclipse.ui.workbench,3.6.2.M20110210-1200,"",1390852295976
activated,workbench,org.eclipse.ui.workbench,3.6.2.M20110210-1200,"",1390852297381
executed,command,org.eclipse.ui.workbench.texteditor,3.6.1.r361_v20100714-0800,"org.eclipse.ui.edit.text.goto.lineEnd",1390852298007
executed,command,org.eclipse.ui,3.6.2.M20110203-1100,"org.eclipse.ui.file.save",1390852300818
executed,command,org.eclipse.ui,3.6.2.M20110203-1100,"org.eclipse.ui.edit.delete",1390852312835
executed,command,org.eclipse.ui,3.6.2.M20110203-1100,"org.eclipse.ui.edit.delete",1390852313261
executed,command,org.eclipse.ui,3.6.2.M20110203-1100,"org.eclipse.ui.edit.delete",1390852313285
executed,command,org.eclipse.ui,3.6.2.M20110203-1100,"org.eclipse.ui.edit.delete",1390852313302
executed,command,org.eclipse.ui,3.6.2.M20110203-1100,"org.eclipse.ui.edit.delete",1390852313325
executed,command,org.eclipse.ui,3.6.2.M20110203-1100,"org.eclipse.ui.edit.delete",1390852313349
executed,command,org.eclipse.ui,3.6.2.M20110203-1100,"org.eclipse.ui.edit.delete",1390852313374
executed,command,org.eclipse.ui,3.6.2.M20110203-1100,"org.eclipse.ui.edit.delete",1390852313399
executed,command,org.eclipse.ui,3.6.2.M20110203-1100,"org.eclipse.ui.edit.delete",1390852313706
deactivated,workbench,org.eclipse.ui.workbench,3.6.2.M20110210-1200,"",1390852315486
activated,workbench,org.eclipse.ui.workbench,3.6.2.M20110210-1200,"",1390852315850
executed,command,org.eclipse.ui,3.6.2.M20110203-1100,"org.eclipse.ui.file.save",1390852316324
deactivated,workbench,org.eclipse.ui.workbench,3.6.2.M20110210-1200,"",1390852316756
activated,workbench,org.eclipse.ui.workbench,3.6.2.M20110210-1200,"",1390852318349
deactivated,workbench,org.eclipse.ui.workbench,3.6.2.M20110210-1200,"",1390852321960
activated,workbench,org.eclipse.ui.workbench,3.6.2.M20110210-1200,"",1390852323480
executed,command,org.eclipse.ui,3.6.2.M20110203-1100,"org.eclipse.ui.edit.copy",1390852358484
executed,command,org.eclipse.ui,3.6.2.M20110203-1100,"org.eclipse.ui.edit.copy",1390852358685
executed,command,org.eclipse.ui,3.6.2.M20110203-1100,"org.eclipse.ui.edit.paste",1390852361920
executed,command,org.eclipse.ui,3.6.2.M20110203-1100,"org.eclipse.ui.edit.undo",1390852396892
executed,command,org.eclipse.ui,3.6.2.M20110203-1100,"org.eclipse.ui.edit.delete",1390852400600
deactivated,workbench,org.eclipse.ui.workbench,3.6.2.M20110210-1200,"",1390852413662
