what,kind,bundleId,bundleVersion,description,time
executed,command,org.eclipse.ui,3.6.2.M20110203-1100,"org.eclipse.ui.edit.copy",1383113835365
deactivated,workbench,org.eclipse.ui.workbench,3.6.2.M20110210-1200,"",1383113835725
activated,workbench,org.eclipse.ui.workbench,3.6.2.M20110210-1200,"",1383113837165
deactivated,workbench,org.eclipse.ui.workbench,3.6.2.M20110210-1200,"",1383113839365
activated,workbench,org.eclipse.ui.workbench,3.6.2.M20110210-1200,"",1383114379918
activated,view,org.eclipse.ui.console,3.5.0.v20100526,"org.eclipse.ui.console.ConsoleView",1383114381069
activated,view,org.eclipse.wst.server.ui,1.1.207.v20110119,"org.eclipse.wst.server.ui.ServersView",1383114382692
activated,view,org.eclipse.ui.console,3.5.0.v20100526,"org.eclipse.ui.console.ConsoleView",1383114384052
deactivated,workbench,org.eclipse.ui.workbench,3.6.2.M20110210-1200,"",1383114388157
activated,workbench,org.eclipse.ui.workbench,3.6.2.M20110210-1200,"",1383114389009
deactivated,workbench,org.eclipse.ui.workbench,3.6.2.M20110210-1200,"",1383114419397
activated,workbench,org.eclipse.ui.workbench,3.6.2.M20110210-1200,"",1383114464296
deactivated,workbench,org.eclipse.ui.workbench,3.6.2.M20110210-1200,"",1383114466254
activated,workbench,org.eclipse.ui.workbench,3.6.2.M20110210-1200,"",1383114487260
deactivated,workbench,org.eclipse.ui.workbench,3.6.2.M20110210-1200,"",1383114487880
activated,workbench,org.eclipse.ui.workbench,3.6.2.M20110210-1200,"",1383117449235
activated,view,org.eclipse.ui.navigator.resources,3.4.202.M20101124-0800,"org.eclipse.ui.navigator.ProjectExplorer",1383117451076
activated,editor,org.eclipse.jst.jsp.ui,1.1.503.v201101262228,"org.eclipse.jst.jsp.core.jspsource.source",1383117454417
opened,editor,org.eclipse.wst.css.ui,1.0.502.v201101122002,"org.eclipse.wst.css.core.csssource.source",1383117457447
activated,editor,org.eclipse.wst.css.ui,1.0.502.v201101122002,"org.eclipse.wst.css.core.csssource.source",1383117457655
activated,editor,org.eclipse.jst.jsp.ui,1.1.503.v201101262228,"org.eclipse.jst.jsp.core.jspsource.source",1383117466873
deactivated,workbench,org.eclipse.ui.workbench,3.6.2.M20110210-1200,"",1383117468062
activated,workbench,org.eclipse.ui.workbench,3.6.2.M20110210-1200,"",1383117469477
deactivated,workbench,org.eclipse.ui.workbench,3.6.2.M20110210-1200,"",1383117471789
activated,workbench,org.eclipse.ui.workbench,3.6.2.M20110210-1200,"",1383117472640
deactivated,workbench,org.eclipse.ui.workbench,3.6.2.M20110210-1200,"",1383117476950
activated,workbench,org.eclipse.ui.workbench,3.6.2.M20110210-1200,"",1383117478782
deactivated,workbench,org.eclipse.ui.workbench,3.6.2.M20110210-1200,"",1383117481406
activated,workbench,org.eclipse.ui.workbench,3.6.2.M20110210-1200,"",1383117485077
activated,view,org.eclipse.ui.navigator.resources,3.4.202.M20101124-0800,"org.eclipse.ui.navigator.ProjectExplorer",1383117489927
started,bundle,oracle.eclipse.tools.webservices.ui,3.2.3.201107052022,"oracle.eclipse.tools.webservices.ui",1383117490617
started,bundle,org.eclipse.ltk.core.refactoring,3.5.101.r362_v20101117-0800,"org.eclipse.ltk.core.refactoring",1383117498939
opened,editor,org.eclipse.jst.jsp.ui,1.1.503.v201101262228,"org.eclipse.jst.jsp.core.jspsource.source",1383117499334
activated,editor,org.eclipse.jst.jsp.ui,1.1.503.v201101262228,"org.eclipse.jst.jsp.core.jspsource.source",1383117499381
activated,editor,org.eclipse.jst.jsp.ui,1.1.503.v201101262228,"org.eclipse.jst.jsp.core.jspsource.source",1383117511409
closed,editor,org.eclipse.wst.css.ui,1.0.502.v201101122002,"org.eclipse.wst.css.core.csssource.source",1383117512555
closed,editor,org.eclipse.ui.browser,3.3.1.r36_20101216,"org.eclipse.ui.browser.editor",1383117514757
activated,editor,org.eclipse.jst.jsp.ui,1.1.503.v201101262228,"org.eclipse.jst.jsp.core.jspsource.source",1383117519330
executed,command,org.eclipse.ui,3.6.2.M20110203-1100,"org.eclipse.ui.edit.cut",1383117522407
executed,command,org.eclipse.ui,3.6.2.M20110203-1100,"org.eclipse.ui.file.save",1383117524087
activated,editor,org.eclipse.jst.jsp.ui,1.1.503.v201101262228,"org.eclipse.jst.jsp.core.jspsource.source",1383117524625
activated,editor,org.eclipse.jst.jsp.ui,1.1.503.v201101262228,"org.eclipse.jst.jsp.core.jspsource.source",1383117526585
started,bundle,org.eclipse.mylyn.java.tasks,3.4.0.v20100608-0100-e3x,"org.eclipse.mylyn.java.tasks",1383117531977
started,bundle,org.eclipse.wst.xsl.exslt.core,1.0.0.v201005240426,"org.eclipse.wst.xsl.exslt.core",1383117532497
executed,command,org.eclipse.ui,3.6.2.M20110203-1100,"org.eclipse.ui.edit.copy",1383117533721
activated,editor,org.eclipse.jst.jsp.ui,1.1.503.v201101262228,"org.eclipse.jst.jsp.core.jspsource.source",1383117533755
deactivated,workbench,org.eclipse.ui.workbench,3.6.2.M20110210-1200,"",1383117536047
executed,command,org.eclipse.ui,3.6.2.M20110203-1100,"org.eclipse.ui.edit.findReplace",1383117536077
executed,command,org.eclipse.ui,3.6.2.M20110203-1100,"org.eclipse.ui.edit.paste",1383117536090
activated,workbench,org.eclipse.ui.workbench,3.6.2.M20110210-1200,"",1383117537134
activated,view,org.eclipse.ui.navigator.resources,3.4.202.M20101124-0800,"org.eclipse.ui.navigator.ProjectExplorer",1383117542818
opened,editor,org.eclipse.wst.css.ui,1.0.502.v201101122002,"org.eclipse.wst.css.core.csssource.source",1383117543618
activated,editor,org.eclipse.wst.css.ui,1.0.502.v201101122002,"org.eclipse.wst.css.core.csssource.source",1383117543657
deactivated,workbench,org.eclipse.ui.workbench,3.6.2.M20110210-1200,"",1383117544713
executed,command,org.eclipse.ui,3.6.2.M20110203-1100,"org.eclipse.ui.edit.findReplace",1383117544737
executed,command,org.eclipse.ui,3.6.2.M20110203-1100,"org.eclipse.ui.edit.paste",1383117544936
activated,workbench,org.eclipse.ui.workbench,3.6.2.M20110210-1200,"",1383117545769
executed,command,org.eclipse.ui,3.6.2.M20110203-1100,"org.eclipse.ui.file.save",1383117556186
deactivated,workbench,org.eclipse.ui.workbench,3.6.2.M20110210-1200,"",1383117556340
activated,workbench,org.eclipse.ui.workbench,3.6.2.M20110210-1200,"",1383117580454
activated,editor,org.eclipse.jst.jsp.ui,1.1.503.v201101262228,"org.eclipse.jst.jsp.core.jspsource.source",1383117583904
executed,command,org.eclipse.ui,3.6.2.M20110203-1100,"org.eclipse.ui.edit.delete",1383117585869
executed,command,org.eclipse.ui,3.6.2.M20110203-1100,"org.eclipse.ui.edit.delete",1383117585981
executed,command,org.eclipse.ui,3.6.2.M20110203-1100,"org.eclipse.ui.file.save",1383117586702
deactivated,workbench,org.eclipse.ui.workbench,3.6.2.M20110210-1200,"",1383117587139
activated,workbench,org.eclipse.ui.workbench,3.6.2.M20110210-1200,"",1383117602209
deactivated,workbench,org.eclipse.ui.workbench,3.6.2.M20110210-1200,"",1383117604150
activated,workbench,org.eclipse.ui.workbench,3.6.2.M20110210-1200,"",1383117604913
executed,command,org.eclipse.ui,3.6.2.M20110203-1100,"org.eclipse.ui.file.save",1383117608846
deactivated,workbench,org.eclipse.ui.workbench,3.6.2.M20110210-1200,"",1383117609305
activated,workbench,org.eclipse.ui.workbench,3.6.2.M20110210-1200,"",1383117612266
executed,command,org.eclipse.ui,3.6.2.M20110203-1100,"org.eclipse.ui.file.save",1383117614981
deactivated,workbench,org.eclipse.ui.workbench,3.6.2.M20110210-1200,"",1383117615077
activated,workbench,org.eclipse.ui.workbench,3.6.2.M20110210-1200,"",1383117625361
deactivated,workbench,org.eclipse.ui.workbench,3.6.2.M20110210-1200,"",1383117631866
activated,workbench,org.eclipse.ui.workbench,3.6.2.M20110210-1200,"",1383117639511
executed,command,org.eclipse.ui,3.6.2.M20110203-1100,"org.eclipse.ui.file.save",1383117643870
deactivated,workbench,org.eclipse.ui.workbench,3.6.2.M20110210-1200,"",1383117644261
activated,workbench,org.eclipse.ui.workbench,3.6.2.M20110210-1200,"",1383117645722
deactivated,workbench,org.eclipse.ui.workbench,3.6.2.M20110210-1200,"",1383117646320
activated,workbench,org.eclipse.ui.workbench,3.6.2.M20110210-1200,"",1383117647276
deactivated,workbench,org.eclipse.ui.workbench,3.6.2.M20110210-1200,"",1383117654103
activated,workbench,org.eclipse.ui.workbench,3.6.2.M20110210-1200,"",1383117655059
executed,command,org.eclipse.ui,3.6.2.M20110203-1100,"org.eclipse.ui.file.save",1383117657428
deactivated,workbench,org.eclipse.ui.workbench,3.6.2.M20110210-1200,"",1383117657567
activated,workbench,org.eclipse.ui.workbench,3.6.2.M20110210-1200,"",1383117671440
deactivated,workbench,org.eclipse.ui.workbench,3.6.2.M20110210-1200,"",1383117671747
activated,workbench,org.eclipse.ui.workbench,3.6.2.M20110210-1200,"",1383117689435
executed,command,org.eclipse.ui,3.6.2.M20110203-1100,"org.eclipse.ui.file.save",1383117763608
deactivated,workbench,org.eclipse.ui.workbench,3.6.2.M20110210-1200,"",1383117763712
activated,workbench,org.eclipse.ui.workbench,3.6.2.M20110210-1200,"",1383117780340
deactivated,workbench,org.eclipse.ui.workbench,3.6.2.M20110210-1200,"",1383117780666
activated,workbench,org.eclipse.ui.workbench,3.6.2.M20110210-1200,"",1383117781126
deactivated,workbench,org.eclipse.ui.workbench,3.6.2.M20110210-1200,"",1383117783886
activated,workbench,org.eclipse.ui.workbench,3.6.2.M20110210-1200,"",1383117799394
executed,command,org.eclipse.ui,3.6.2.M20110203-1100,"org.eclipse.ui.file.save",1383117804300
deactivated,workbench,org.eclipse.ui.workbench,3.6.2.M20110210-1200,"",1383117804383
activated,workbench,org.eclipse.ui.workbench,3.6.2.M20110210-1200,"",1383117807047
executed,command,org.eclipse.ui,3.6.2.M20110203-1100,"org.eclipse.ui.edit.undo",1383117807625
executed,command,org.eclipse.ui,3.6.2.M20110203-1100,"org.eclipse.ui.file.save",1383117809828
activated,view,org.eclipse.ui.navigator.resources,3.4.202.M20101124-0800,"org.eclipse.ui.navigator.ProjectExplorer",1383117811354
deactivated,workbench,org.eclipse.ui.workbench,3.6.2.M20110210-1200,"",1383117816639
activated,workbench,org.eclipse.ui.workbench,3.6.2.M20110210-1200,"",1383117817809
executed,command,org.eclipse.wst.server.ui,1.1.207.v20110119,"org.eclipse.wst.server.launchShortcut.run",1383117818830
deactivated,workbench,org.eclipse.ui.workbench,3.6.2.M20110210-1200,"",1383117823106
activated,workbench,org.eclipse.ui.workbench,3.6.2.M20110210-1200,"",1383117824155
deactivated,workbench,org.eclipse.ui.workbench,3.6.2.M20110210-1200,"",1383117828320
opened,editor,org.eclipse.ui.browser,3.3.1.r36_20101216,"org.eclipse.ui.browser.editor",1383117835951
activated,editor,org.eclipse.ui.browser,3.3.1.r36_20101216,"org.eclipse.ui.browser.editor",1383117836044
activated,workbench,org.eclipse.ui.workbench,3.6.2.M20110210-1200,"",1383117836568
deactivated,workbench,org.eclipse.ui.workbench,3.6.2.M20110210-1200,"",1383117836989
activated,workbench,org.eclipse.ui.workbench,3.6.2.M20110210-1200,"",1383117846213
executed,command,org.eclipse.wst.server.ui,1.1.207.v20110119,"org.eclipse.wst.server.launchShortcut.run",1383117846231
deactivated,workbench,org.eclipse.ui.workbench,3.6.2.M20110210-1200,"",1383117849346
activated,workbench,org.eclipse.ui.workbench,3.6.2.M20110210-1200,"",1383117854037
executed,command,org.eclipse.ui,3.6.2.M20110203-1100,"org.eclipse.ui.edit.copy",1383117855972
deactivated,workbench,org.eclipse.ui.workbench,3.6.2.M20110210-1200,"",1383117856172
error,log,,,"Error starting server Tomcat v6.0 Server at localhost",1383117870002
opened,editor,org.eclipse.ui.browser,3.3.1.r36_20101216,"org.eclipse.ui.browser.editor",1383117870426
activated,workbench,org.eclipse.ui.workbench,3.6.2.M20110210-1200,"",1383117870465
activated,editor,org.eclipse.ui.browser,3.3.1.r36_20101216,"org.eclipse.ui.browser.editor",1383117870539
error,log,,,"Several ports (8005, 8080, 8009) required by Tomcat v6.0 Server at localhost are already in use. The server may already be running in another process, or a system process may be using the port. To start this server you will need to stop the other process or change the port number(s).",1383117871135
deactivated,workbench,org.eclipse.ui.workbench,3.6.2.M20110210-1200,"",1383117872117
activated,workbench,org.eclipse.ui.workbench,3.6.2.M20110210-1200,"",1383117872912
deactivated,workbench,org.eclipse.ui.workbench,3.6.2.M20110210-1200,"",1383117874021
activated,workbench,org.eclipse.ui.workbench,3.6.2.M20110210-1200,"",1383117874091
activated,view,org.eclipse.wst.server.ui,1.1.207.v20110119,"org.eclipse.wst.server.ui.ServersView",1383117875626
deactivated,workbench,org.eclipse.ui.workbench,3.6.2.M20110210-1200,"",1383117880271
activated,workbench,org.eclipse.ui.workbench,3.6.2.M20110210-1200,"",1383117881320
executed,command,org.eclipse.ui,3.6.2.M20110203-1100,"org.eclipse.ui.edit.delete",1383117881331
deactivated,workbench,org.eclipse.ui.workbench,3.6.2.M20110210-1200,"",1383117882631
activated,workbench,org.eclipse.ui.workbench,3.6.2.M20110210-1200,"",1383117884134
activated,view,org.eclipse.ui.console,3.5.0.v20100526,"org.eclipse.ui.console.ConsoleView",1383117884165
activated,view,org.eclipse.wst.server.ui,1.1.207.v20110119,"org.eclipse.wst.server.ui.ServersView",1383117918413
deactivated,workbench,org.eclipse.ui.workbench,3.6.2.M20110210-1200,"",1383117920148
activated,workbench,org.eclipse.ui.workbench,3.6.2.M20110210-1200,"",1383117922051
executed,command,org.eclipse.wst.server.ui,1.1.207.v20110119,"org.eclipse.wst.server.debug",1383117923933
deactivated,workbench,org.eclipse.ui.workbench,3.6.2.M20110210-1200,"",1383117930281
activated,workbench,org.eclipse.ui.workbench,3.6.2.M20110210-1200,"",1383117933377
deactivated,workbench,org.eclipse.ui.workbench,3.6.2.M20110210-1200,"",1383117933687
activated,workbench,org.eclipse.ui.workbench,3.6.2.M20110210-1200,"",1383117942040
activated,view,org.eclipse.ui.console,3.5.0.v20100526,"org.eclipse.ui.console.ConsoleView",1383117943850
deactivated,workbench,org.eclipse.ui.workbench,3.6.2.M20110210-1200,"",1383117945201
activated,workbench,org.eclipse.ui.workbench,3.6.2.M20110210-1200,"",1383117946632
activated,view,org.eclipse.wst.server.ui,1.1.207.v20110119,"org.eclipse.wst.server.ui.ServersView",1383117946671
executed,command,org.eclipse.wst.server.ui,1.1.207.v20110119,"org.eclipse.wst.server.run",1383117951880
activated,view,org.eclipse.ui.console,3.5.0.v20100526,"org.eclipse.ui.console.ConsoleView",1383117952793
activated,view,org.eclipse.wst.server.ui,1.1.207.v20110119,"org.eclipse.wst.server.ui.ServersView",1383117954651
deactivated,workbench,org.eclipse.ui.workbench,3.6.2.M20110210-1200,"",1383117954763
activated,workbench,org.eclipse.ui.workbench,3.6.2.M20110210-1200,"",1383117955710
activated,view,org.eclipse.ui.console,3.5.0.v20100526,"org.eclipse.ui.console.ConsoleView",1383117955748
activated,view,org.eclipse.wst.server.ui,1.1.207.v20110119,"org.eclipse.wst.server.ui.ServersView",1383117957297
activated,view,org.eclipse.ui.navigator.resources,3.4.202.M20101124-0800,"org.eclipse.ui.navigator.ProjectExplorer",1383117963975
deactivated,workbench,org.eclipse.ui.workbench,3.6.2.M20110210-1200,"",1383117967986
started,bundle,org.eclipse.wst.command.env.ui,1.1.3.v201004211805,"org.eclipse.wst.command.env.ui",1383117971637
started,bundle,org.eclipse.wst.common.environment,1.0.400.v200912181832,"org.eclipse.wst.common.environment",1383117971698
started,bundle,org.eclipse.jst.ws.consumption.ui,1.1.302.v201101191731,"org.eclipse.jst.ws.consumption.ui",1383117971850
started,bundle,org.eclipse.wst.ws.parser,1.0.403.v201004211805,"org.eclipse.wst.ws.parser",1383117972048
started,bundle,org.eclipse.jst.ws,1.0.507.v201004211805,"org.eclipse.jst.ws",1383117972175
started,bundle,org.eclipse.jst.ws.consumption,1.0.507.v201004211805,"org.eclipse.jst.ws.consumption",1383117972329
started,bundle,org.eclipse.wst.ws.ui,1.1.200.v201004211805,"org.eclipse.wst.ws.ui",1383117972649
started,bundle,org.eclipse.jst.ws.axis.creation.ui,1.0.600.v201008171516,"org.eclipse.jst.ws.axis.creation.ui",1383117972765
started,bundle,org.eclipse.jst.ws.axis.consumption.ui,1.0.505.v201004211805,"org.eclipse.jst.ws.axis.consumption.ui",1383117972799
started,bundle,org.eclipse.jst.ws.ui,1.0.403.v201004211805,"org.eclipse.jst.ws.ui",1383117972934
started,bundle,org.eclipse.jst.ws.axis.consumption.core,1.0.406.v201004211805,"org.eclipse.jst.ws.axis.consumption.core",1383117982088
activated,workbench,org.eclipse.ui.workbench,3.6.2.M20110210-1200,"",1383117987403
executed,command,org.eclipse.ui,3.6.2.M20110203-1100,"org.eclipse.ui.newWizard",1383117987430
deactivated,workbench,org.eclipse.ui.workbench,3.6.2.M20110210-1200,"",1383117992310
activated,workbench,org.eclipse.ui.workbench,3.6.2.M20110210-1200,"",1383118002601
executed,command,org.eclipse.ui,3.6.2.M20110203-1100,"org.eclipse.ui.newWizard",1383118002611
deactivated,workbench,org.eclipse.ui.workbench,3.6.2.M20110210-1200,"",1383118002613
activated,workbench,org.eclipse.ui.workbench,3.6.2.M20110210-1200,"",1383118042966
activated,editor,org.eclipse.ui.browser,3.3.1.r36_20101216,"org.eclipse.ui.browser.editor",1383118045423
executed,command,org.eclipse.ui,3.6.2.M20110203-1100,"org.eclipse.ui.edit.copy",1383118045754
executed,command,org.eclipse.ui,3.6.2.M20110203-1100,"org.eclipse.ui.edit.copy",1383118045936
deactivated,workbench,org.eclipse.ui.workbench,3.6.2.M20110210-1200,"",1383118046850
activated,workbench,org.eclipse.ui.workbench,3.6.2.M20110210-1200,"",1383118052422
activated,view,org.eclipse.ui.navigator.resources,3.4.202.M20101124-0800,"org.eclipse.ui.navigator.ProjectExplorer",1383118054875
deactivated,workbench,org.eclipse.ui.workbench,3.6.2.M20110210-1200,"",1383118059814
activated,workbench,org.eclipse.ui.workbench,3.6.2.M20110210-1200,"",1383118079267
executed,command,org.eclipse.ui,3.6.2.M20110203-1100,"org.eclipse.ui.newWizard",1383118079278
deactivated,workbench,org.eclipse.ui.workbench,3.6.2.M20110210-1200,"",1383118079282
activated,workbench,org.eclipse.ui.workbench,3.6.2.M20110210-1200,"",1383118081137
deactivated,workbench,org.eclipse.ui.workbench,3.6.2.M20110210-1200,"",1383118085398
activated,workbench,org.eclipse.ui.workbench,3.6.2.M20110210-1200,"",1383118095855
executed,command,org.eclipse.ui,3.6.2.M20110203-1100,"org.eclipse.ui.newWizard",1383118095874
deactivated,workbench,org.eclipse.ui.workbench,3.6.2.M20110210-1200,"",1383118098247
activated,workbench,org.eclipse.ui.workbench,3.6.2.M20110210-1200,"",1383118099368
executed,command,org.eclipse.wst.server.ui,1.1.207.v20110119,"org.eclipse.wst.server.launchShortcut.run",1383118099399
opened,editor,org.eclipse.ui.browser,3.3.1.r36_20101216,"org.eclipse.ui.browser.editor",1383118100496
activated,editor,org.eclipse.ui.browser,3.3.1.r36_20101216,"org.eclipse.ui.browser.editor",1383118100545
activated,view,org.eclipse.ui.navigator.resources,3.4.202.M20101124-0800,"org.eclipse.ui.navigator.ProjectExplorer",1383118101269
deactivated,workbench,org.eclipse.ui.workbench,3.6.2.M20110210-1200,"",1383118103320
activated,workbench,org.eclipse.ui.workbench,3.6.2.M20110210-1200,"",1383118104218
deactivated,workbench,org.eclipse.ui.workbench,3.6.2.M20110210-1200,"",1383118104253
activated,workbench,org.eclipse.ui.workbench,3.6.2.M20110210-1200,"",1383118105060
executed,command,org.eclipse.wst.server.ui,1.1.207.v20110119,"org.eclipse.wst.server.launchShortcut.run",1383118105068
deactivated,workbench,org.eclipse.ui.workbench,3.6.2.M20110210-1200,"",1383118105448
activated,workbench,org.eclipse.ui.workbench,3.6.2.M20110210-1200,"",1383118109660
opened,editor,org.eclipse.ui.browser,3.3.1.r36_20101216,"org.eclipse.ui.browser.editor",1383118110098
activated,editor,org.eclipse.ui.browser,3.3.1.r36_20101216,"org.eclipse.ui.browser.editor",1383118110151
executed,command,org.eclipse.ui,3.6.2.M20110203-1100,"org.eclipse.ui.edit.copy",1383118112854
deactivated,workbench,org.eclipse.ui.workbench,3.6.2.M20110210-1200,"",1383118113254
activated,workbench,org.eclipse.ui.workbench,3.6.2.M20110210-1200,"",1383118122699
activated,view,org.eclipse.ui.console,3.5.0.v20100526,"org.eclipse.ui.console.ConsoleView",1383118123439
activated,view,org.eclipse.ui.navigator.resources,3.4.202.M20101124-0800,"org.eclipse.ui.navigator.ProjectExplorer",1383118128470
deactivated,workbench,org.eclipse.ui.workbench,3.6.2.M20110210-1200,"",1383118130752
activated,workbench,org.eclipse.ui.workbench,3.6.2.M20110210-1200,"",1383118140814
executed,command,org.eclipse.ui,3.6.2.M20110203-1100,"org.eclipse.ui.newWizard",1383118140838
deactivated,workbench,org.eclipse.ui.workbench,3.6.2.M20110210-1200,"",1383118145365
activated,workbench,org.eclipse.ui.workbench,3.6.2.M20110210-1200,"",1383118158914
executed,command,org.eclipse.ui,3.6.2.M20110203-1100,"org.eclipse.ui.newWizard",1383118158930
deactivated,workbench,org.eclipse.ui.workbench,3.6.2.M20110210-1200,"",1383118161614
activated,workbench,org.eclipse.ui.workbench,3.6.2.M20110210-1200,"",1383118172427
executed,command,org.eclipse.ui,3.6.2.M20110203-1100,"org.eclipse.ui.newWizard",1383118172443
deactivated,workbench,org.eclipse.ui.workbench,3.6.2.M20110210-1200,"",1383118175317
activated,workbench,org.eclipse.ui.workbench,3.6.2.M20110210-1200,"",1383118185455
executed,command,org.eclipse.ui,3.6.2.M20110203-1100,"org.eclipse.ui.newWizard",1383118185478
deactivated,workbench,org.eclipse.ui.workbench,3.6.2.M20110210-1200,"",1383118187646
activated,workbench,org.eclipse.ui.workbench,3.6.2.M20110210-1200,"",1383118188421
deactivated,workbench,org.eclipse.ui.workbench,3.6.2.M20110210-1200,"",1383118188452
activated,workbench,org.eclipse.ui.workbench,3.6.2.M20110210-1200,"",1383118189552
executed,command,org.eclipse.wst.server.ui,1.1.207.v20110119,"org.eclipse.wst.server.launchShortcut.run",1383118189572
opened,editor,org.eclipse.ui.browser,3.3.1.r36_20101216,"org.eclipse.ui.browser.editor",1383118194167
activated,editor,org.eclipse.ui.browser,3.3.1.r36_20101216,"org.eclipse.ui.browser.editor",1383118194235
executed,command,org.eclipse.ui,3.6.2.M20110203-1100,"org.eclipse.ui.edit.copy",1383118196941
deactivated,workbench,org.eclipse.ui.workbench,3.6.2.M20110210-1200,"",1383118197276
activated,workbench,org.eclipse.ui.workbench,3.6.2.M20110210-1200,"",1383118208186
activated,view,org.eclipse.ui.console,3.5.0.v20100526,"org.eclipse.ui.console.ConsoleView",1383118209245
deactivated,workbench,org.eclipse.ui.workbench,3.6.2.M20110210-1200,"",1383118214107
activated,workbench,org.eclipse.ui.workbench,3.6.2.M20110210-1200,"",1383118381750
activated,view,org.eclipse.ui.navigator.resources,3.4.202.M20101124-0800,"org.eclipse.ui.navigator.ProjectExplorer",1383118383778
started,bundle,oracle.eclipse.tools.sapphire.modeling.legacy,3.2.3.201107052022,"oracle.eclipse.tools.sapphire.modeling.legacy",1383118388543
started,bundle,org.eclipse.ltk.ui.refactoring,3.5.0.v20100526-0800,"org.eclipse.ltk.ui.refactoring",1383118390175
deactivated,workbench,org.eclipse.ui.workbench,3.6.2.M20110210-1200,"",1383118390954
activated,workbench,org.eclipse.ui.workbench,3.6.2.M20110210-1200,"",1383118394226
executed,command,org.eclipse.ui,3.6.2.M20110203-1100,"org.eclipse.ui.edit.delete",1383118394235
started,bundle,org.eclipse.jst.ws.creation.ui,1.0.510.v201011041151,"org.eclipse.jst.ws.creation.ui",1383118401961
started,bundle,org.eclipse.jst.ws.uddiregistry,1.0.500.v201004211805,"org.eclipse.jst.ws.uddiregistry",1383118402001
started,bundle,org.eclipse.wst.ws.explorer,1.0.507.v201004220342,"org.eclipse.wst.ws.explorer",1383118402126
deactivated,workbench,org.eclipse.ui.workbench,3.6.2.M20110210-1200,"",1383118402924
started,bundle,org.eclipse.wst.internet.cache,1.0.400.v201004280700,"org.eclipse.wst.internet.cache",1383118411361
started,bundle,org.eclipse.wst.wsi,1.0.400.v201004220210,"org.eclipse.wst.wsi",1383118412074
deactivated,workbench,org.eclipse.ui.workbench,3.6.2.M20110210-1200,"",1383118431886
activated,workbench,org.eclipse.ui.workbench,3.6.2.M20110210-1200,"",1383118431891
activated,workbench,org.eclipse.ui.workbench,3.6.2.M20110210-1200,"",1383118431906
opened,editor,org.eclipse.ui.browser,3.3.1.r36_20101216,"org.eclipse.ui.browser.editor",1383118432073
activated,editor,org.eclipse.ui.browser,3.3.1.r36_20101216,"org.eclipse.ui.browser.editor",1383118432156
deactivated,workbench,org.eclipse.ui.workbench,3.6.2.M20110210-1200,"",1383118432176
activated,workbench,org.eclipse.ui.workbench,3.6.2.M20110210-1200,"",1383118432202
activated,view,org.eclipse.ui.navigator.resources,3.4.202.M20101124-0800,"org.eclipse.ui.navigator.ProjectExplorer",1383118437916
deactivated,workbench,org.eclipse.ui.workbench,3.6.2.M20110210-1200,"",1383118441489
error,log,,,"Task failed",1383118452703
activated,workbench,org.eclipse.ui.workbench,3.6.2.M20110210-1200,"",1383118460377
deactivated,workbench,org.eclipse.ui.workbench,3.6.2.M20110210-1200,"",1383118463782
opened,editor,org.eclipse.ui.browser,3.3.1.r36_20101216,"org.eclipse.ui.browser.editor",1383118484503
activated,editor,org.eclipse.ui.browser,3.3.1.r36_20101216,"org.eclipse.ui.browser.editor",1383118484541
activated,workbench,org.eclipse.ui.workbench,3.6.2.M20110210-1200,"",1383118484561
activated,view,org.eclipse.ui.navigator.resources,3.4.202.M20101124-0800,"org.eclipse.ui.navigator.ProjectExplorer",1383118488644
deactivated,workbench,org.eclipse.ui.workbench,3.6.2.M20110210-1200,"",1383118490759
opened,editor,org.eclipse.ui.browser,3.3.1.r36_20101216,"org.eclipse.ui.browser.editor",1383118507434
activated,editor,org.eclipse.ui.browser,3.3.1.r36_20101216,"org.eclipse.ui.browser.editor",1383118507464
activated,workbench,org.eclipse.ui.workbench,3.6.2.M20110210-1200,"",1383118507485
activated,view,org.eclipse.ui.navigator.resources,3.4.202.M20101124-0800,"org.eclipse.ui.navigator.ProjectExplorer",1383118517823
deactivated,workbench,org.eclipse.ui.workbench,3.6.2.M20110210-1200,"",1383118520395
activated,workbench,org.eclipse.ui.workbench,3.6.2.M20110210-1200,"",1383118537563
deactivated,workbench,org.eclipse.ui.workbench,3.6.2.M20110210-1200,"",1383118541080
opened,editor,org.eclipse.ui.browser,3.3.1.r36_20101216,"org.eclipse.ui.browser.editor",1383118559637
activated,editor,org.eclipse.ui.browser,3.3.1.r36_20101216,"org.eclipse.ui.browser.editor",1383118559706
activated,workbench,org.eclipse.ui.workbench,3.6.2.M20110210-1200,"",1383118559731
deactivated,workbench,org.eclipse.ui.workbench,3.6.2.M20110210-1200,"",1383118561238
activated,workbench,org.eclipse.ui.workbench,3.6.2.M20110210-1200,"",1383118562177
activated,view,org.eclipse.ui.navigator.resources,3.4.202.M20101124-0800,"org.eclipse.ui.navigator.ProjectExplorer",1383118563129
deactivated,workbench,org.eclipse.ui.workbench,3.6.2.M20110210-1200,"",1383118570741
activated,workbench,org.eclipse.ui.workbench,3.6.2.M20110210-1200,"",1383118579456
