what,kind,bundleId,bundleVersion,description,time
executed,command,org.eclipse.ui,3.6.2.M20110203-1100,"org.eclipse.ui.edit.text.contentAssist.proposals",1383446799618
executed,command,org.eclipse.ui,3.6.2.M20110203-1100,"org.eclipse.ui.file.save",1383446806592
deactivated,workbench,org.eclipse.ui.workbench,3.6.2.M20110210-1200,"",1383446807144
activated,workbench,org.eclipse.ui.workbench,3.6.2.M20110210-1200,"",1383446823427
executed,command,org.eclipse.ui,3.6.2.M20110203-1100,"org.eclipse.ui.edit.cut",1383446826935
executed,command,org.eclipse.ui,3.6.2.M20110203-1100,"org.eclipse.ui.edit.text.contentAssist.proposals",1383446833754
executed,command,org.eclipse.ui,3.6.2.M20110203-1100,"org.eclipse.ui.file.save",1383446837882
deactivated,workbench,org.eclipse.ui.workbench,3.6.2.M20110210-1200,"",1383446838580
activated,workbench,org.eclipse.ui.workbench,3.6.2.M20110210-1200,"",1383446839276
deactivated,workbench,org.eclipse.ui.workbench,3.6.2.M20110210-1200,"",1383446839590
activated,workbench,org.eclipse.ui.workbench,3.6.2.M20110210-1200,"",1383446845711
executed,command,org.eclipse.ui,3.6.2.M20110203-1100,"org.eclipse.ui.file.save",1383446849260
deactivated,workbench,org.eclipse.ui.workbench,3.6.2.M20110210-1200,"",1383446849556
activated,workbench,org.eclipse.ui.workbench,3.6.2.M20110210-1200,"",1383446852498
executed,command,org.eclipse.ui,3.6.2.M20110203-1100,"org.eclipse.ui.edit.cut",1383446877194
executed,command,org.eclipse.ui,3.6.2.M20110203-1100,"org.eclipse.ui.edit.paste",1383446879157
executed,command,org.eclipse.ui,3.6.2.M20110203-1100,"org.eclipse.ui.file.save",1383446879577
executed,command,org.eclipse.ui,3.6.2.M20110203-1100,"org.eclipse.ui.edit.cut",1383446884979
executed,command,org.eclipse.ui,3.6.2.M20110203-1100,"org.eclipse.ui.edit.paste",1383446885601
executed,command,org.eclipse.ui,3.6.2.M20110203-1100,"org.eclipse.ui.file.save",1383446886090
deactivated,workbench,org.eclipse.ui.workbench,3.6.2.M20110210-1200,"",1383446892327
activated,workbench,org.eclipse.ui.workbench,3.6.2.M20110210-1200,"",1383446896001
deactivated,workbench,org.eclipse.ui.workbench,3.6.2.M20110210-1200,"",1383446896531
activated,workbench,org.eclipse.ui.workbench,3.6.2.M20110210-1200,"",1383446905287
executed,command,org.eclipse.ui,3.6.2.M20110203-1100,"org.eclipse.ui.file.save",1383446909025
executed,command,org.eclipse.ui,3.6.2.M20110203-1100,"org.eclipse.ui.edit.cut",1383446913084
executed,command,org.eclipse.ui,3.6.2.M20110203-1100,"org.eclipse.ui.file.save",1383446913512
executed,command,org.eclipse.ui,3.6.2.M20110203-1100,"org.eclipse.ui.file.save",1383446956656
deactivated,workbench,org.eclipse.ui.workbench,3.6.2.M20110210-1200,"",1383446957538
activated,workbench,org.eclipse.ui.workbench,3.6.2.M20110210-1200,"",1383446961666
executed,command,org.eclipse.ui,3.6.2.M20110203-1100,"org.eclipse.ui.file.save",1383446969376
deactivated,workbench,org.eclipse.ui.workbench,3.6.2.M20110210-1200,"",1383446969808
activated,workbench,org.eclipse.ui.workbench,3.6.2.M20110210-1200,"",1383446981472
executed,command,org.eclipse.ui,3.6.2.M20110203-1100,"org.eclipse.ui.edit.cut",1383446987728
executed,command,org.eclipse.ui,3.6.2.M20110203-1100,"org.eclipse.ui.edit.paste",1383446989293
executed,command,org.eclipse.ui,3.6.2.M20110203-1100,"org.eclipse.ui.file.save",1383446989632
deactivated,workbench,org.eclipse.ui.workbench,3.6.2.M20110210-1200,"",1383446989975
activated,workbench,org.eclipse.ui.workbench,3.6.2.M20110210-1200,"",1383446997475
executed,command,org.eclipse.ui,3.6.2.M20110203-1100,"org.eclipse.ui.file.save",1383447001784
executed,command,org.eclipse.ui,3.6.2.M20110203-1100,"org.eclipse.ui.edit.cut",1383447003941
executed,command,org.eclipse.ui,3.6.2.M20110203-1100,"org.eclipse.ui.edit.paste",1383447005735
executed,command,org.eclipse.ui,3.6.2.M20110203-1100,"org.eclipse.ui.file.save",1383447006178
deactivated,workbench,org.eclipse.ui.workbench,3.6.2.M20110210-1200,"",1383447006495
activated,workbench,org.eclipse.ui.workbench,3.6.2.M20110210-1200,"",1383447014029
executed,command,org.eclipse.ui,3.6.2.M20110203-1100,"org.eclipse.ui.file.save",1383447020702
deactivated,workbench,org.eclipse.ui.workbench,3.6.2.M20110210-1200,"",1383447020985
activated,workbench,org.eclipse.ui.workbench,3.6.2.M20110210-1200,"",1383447030122
executed,command,org.eclipse.ui,3.6.2.M20110203-1100,"org.eclipse.ui.file.save",1383447037086
deactivated,workbench,org.eclipse.ui.workbench,3.6.2.M20110210-1200,"",1383447037327
activated,workbench,org.eclipse.ui.workbench,3.6.2.M20110210-1200,"",1383447039940
executed,command,org.eclipse.ui,3.6.2.M20110203-1100,"org.eclipse.ui.file.save",1383447041592
deactivated,workbench,org.eclipse.ui.workbench,3.6.2.M20110210-1200,"",1383447041934
activated,workbench,org.eclipse.ui.workbench,3.6.2.M20110210-1200,"",1383447043978
executed,command,org.eclipse.ui,3.6.2.M20110203-1100,"org.eclipse.ui.file.save",1383447045085
deactivated,workbench,org.eclipse.ui.workbench,3.6.2.M20110210-1200,"",1383447045407
activated,workbench,org.eclipse.ui.workbench,3.6.2.M20110210-1200,"",1383447058828
executed,command,org.eclipse.ui,3.6.2.M20110203-1100,"org.eclipse.ui.edit.text.contentAssist.proposals",1383447059860
deactivated,workbench,org.eclipse.ui.workbench,3.6.2.M20110210-1200,"",1383447063030
activated,workbench,org.eclipse.ui.workbench,3.6.2.M20110210-1200,"",1383447069710
executed,command,org.eclipse.ui,3.6.2.M20110203-1100,"org.eclipse.ui.edit.text.contentAssist.proposals",1383447073904
executed,command,org.eclipse.ui,3.6.2.M20110203-1100,"org.eclipse.ui.file.save",1383447080133
deactivated,workbench,org.eclipse.ui.workbench,3.6.2.M20110210-1200,"",1383447080455
activated,workbench,org.eclipse.ui.workbench,3.6.2.M20110210-1200,"",1383447082647
deactivated,workbench,org.eclipse.ui.workbench,3.6.2.M20110210-1200,"",1383447083644
activated,workbench,org.eclipse.ui.workbench,3.6.2.M20110210-1200,"",1383447086184
executed,command,org.eclipse.ui,3.6.2.M20110203-1100,"org.eclipse.ui.edit.cut",1383447091579
deactivated,workbench,org.eclipse.ui.workbench,3.6.2.M20110210-1200,"",1383447099819
activated,workbench,org.eclipse.ui.workbench,3.6.2.M20110210-1200,"",1383447100610
executed,command,org.eclipse.ui,3.6.2.M20110203-1100,"org.eclipse.ui.edit.text.contentAssist.proposals",1383447104497
executed,command,org.eclipse.ui,3.6.2.M20110203-1100,"org.eclipse.ui.edit.paste",1383447105271
executed,command,org.eclipse.ui,3.6.2.M20110203-1100,"org.eclipse.ui.file.save",1383447106277
executed,command,org.eclipse.ui,3.6.2.M20110203-1100,"org.eclipse.ui.edit.delete",1383447107163
deactivated,workbench,org.eclipse.ui.workbench,3.6.2.M20110210-1200,"",1383447107884
activated,workbench,org.eclipse.ui.workbench,3.6.2.M20110210-1200,"",1383447107967
executed,command,org.eclipse.ui,3.6.2.M20110203-1100,"org.eclipse.ui.file.save",1383447107971
executed,command,org.eclipse.ui,3.6.2.M20110203-1100,"org.eclipse.ui.edit.text.contentAssist.proposals",1383447114881
executed,command,org.eclipse.ui,3.6.2.M20110203-1100,"org.eclipse.ui.file.save",1383447116759
executed,command,org.eclipse.ui,3.6.2.M20110203-1100,"org.eclipse.ui.edit.delete",1383447119719
executed,command,org.eclipse.ui,3.6.2.M20110203-1100,"org.eclipse.ui.edit.delete",1383447119909
executed,command,org.eclipse.ui,3.6.2.M20110203-1100,"org.eclipse.ui.edit.delete",1383447120082
executed,command,org.eclipse.ui,3.6.2.M20110203-1100,"org.eclipse.ui.edit.delete",1383447120249
executed,command,org.eclipse.ui,3.6.2.M20110203-1100,"org.eclipse.ui.edit.delete",1383447120402
executed,command,org.eclipse.ui,3.6.2.M20110203-1100,"org.eclipse.ui.edit.delete",1383447120547
executed,command,org.eclipse.ui,3.6.2.M20110203-1100,"org.eclipse.ui.edit.delete",1383447120698
executed,command,org.eclipse.ui,3.6.2.M20110203-1100,"org.eclipse.ui.edit.delete",1383447121009
executed,command,org.eclipse.ui,3.6.2.M20110203-1100,"org.eclipse.ui.file.save",1383447136357
executed,command,org.eclipse.ui,3.6.2.M20110203-1100,"org.eclipse.ui.edit.copy",1383447138035
activated,editor,org.eclipse.wst.css.ui,1.0.502.v201101122002,"org.eclipse.wst.css.core.csssource.source",1383447139069
executed,command,org.eclipse.ui,3.6.2.M20110203-1100,"org.eclipse.ui.edit.paste",1383447141921
executed,command,org.eclipse.ui,3.6.2.M20110203-1100,"org.eclipse.ui.file.save",1383447154973
deactivated,workbench,org.eclipse.ui.workbench,3.6.2.M20110210-1200,"",1383447155350
activated,workbench,org.eclipse.ui.workbench,3.6.2.M20110210-1200,"",1383447171857
activated,editor,org.eclipse.jst.jsp.ui,1.1.503.v201101262228,"org.eclipse.jst.jsp.core.jspsource.source",1383447174272
executed,command,org.eclipse.ui,3.6.2.M20110203-1100,"org.eclipse.ui.edit.text.contentAssist.proposals",1383447180344
executed,command,org.eclipse.ui,3.6.2.M20110203-1100,"org.eclipse.ui.file.save",1383447185622
deactivated,workbench,org.eclipse.ui.workbench,3.6.2.M20110210-1200,"",1383447185854
activated,workbench,org.eclipse.ui.workbench,3.6.2.M20110210-1200,"",1383447188285
executed,command,org.eclipse.ui,3.6.2.M20110203-1100,"org.eclipse.ui.file.save",1383447190077
deactivated,workbench,org.eclipse.ui.workbench,3.6.2.M20110210-1200,"",1383447190503
activated,workbench,org.eclipse.ui.workbench,3.6.2.M20110210-1200,"",1383447193382
executed,command,org.eclipse.ui,3.6.2.M20110203-1100,"org.eclipse.ui.file.save",1383447195386
deactivated,workbench,org.eclipse.ui.workbench,3.6.2.M20110210-1200,"",1383447195836
activated,workbench,org.eclipse.ui.workbench,3.6.2.M20110210-1200,"",1383447198545
executed,command,org.eclipse.ui,3.6.2.M20110203-1100,"org.eclipse.ui.file.save",1383447201093
deactivated,workbench,org.eclipse.ui.workbench,3.6.2.M20110210-1200,"",1383447201452
activated,workbench,org.eclipse.ui.workbench,3.6.2.M20110210-1200,"",1383447204740
deactivated,workbench,org.eclipse.ui.workbench,3.6.2.M20110210-1200,"",1383447204955
activated,workbench,org.eclipse.ui.workbench,3.6.2.M20110210-1200,"",1383447210129
executed,command,org.eclipse.ui,3.6.2.M20110203-1100,"org.eclipse.ui.file.save",1383447214715
deactivated,workbench,org.eclipse.ui.workbench,3.6.2.M20110210-1200,"",1383447215048
activated,workbench,org.eclipse.ui.workbench,3.6.2.M20110210-1200,"",1383447244803
deactivated,workbench,org.eclipse.ui.workbench,3.6.2.M20110210-1200,"",1383447245625
activated,workbench,org.eclipse.ui.workbench,3.6.2.M20110210-1200,"",1383447248071
activated,editor,org.eclipse.wst.css.ui,1.0.502.v201101122002,"org.eclipse.wst.css.core.csssource.source",1383447249505
executed,command,org.eclipse.ui.workbench.texteditor,3.6.1.r361_v20100714-0800,"org.eclipse.ui.edit.text.goto.lineEnd",1383447256261
executed,command,org.eclipse.ui,3.6.2.M20110203-1100,"org.eclipse.ui.file.save",1383447269026
deactivated,workbench,org.eclipse.ui.workbench,3.6.2.M20110210-1200,"",1383447269352
activated,workbench,org.eclipse.ui.workbench,3.6.2.M20110210-1200,"",1383447279193
executed,command,org.eclipse.ui,3.6.2.M20110203-1100,"org.eclipse.ui.file.save",1383447282311
deactivated,workbench,org.eclipse.ui.workbench,3.6.2.M20110210-1200,"",1383447282632
activated,workbench,org.eclipse.ui.workbench,3.6.2.M20110210-1200,"",1383447292137
executed,command,org.eclipse.ui,3.6.2.M20110203-1100,"org.eclipse.ui.file.save",1383447298354
executed,command,org.eclipse.ui,3.6.2.M20110203-1100,"org.eclipse.ui.file.save",1383447298948
deactivated,workbench,org.eclipse.ui.workbench,3.6.2.M20110210-1200,"",1383447299314
activated,workbench,org.eclipse.ui.workbench,3.6.2.M20110210-1200,"",1383447304741
executed,command,org.eclipse.ui,3.6.2.M20110203-1100,"org.eclipse.ui.file.save",1383447308827
deactivated,workbench,org.eclipse.ui.workbench,3.6.2.M20110210-1200,"",1383447309294
activated,workbench,org.eclipse.ui.workbench,3.6.2.M20110210-1200,"",1383447312476
executed,command,org.eclipse.ui,3.6.2.M20110203-1100,"org.eclipse.ui.file.save",1383447313943
deactivated,workbench,org.eclipse.ui.workbench,3.6.2.M20110210-1200,"",1383447314249
activated,workbench,org.eclipse.ui.workbench,3.6.2.M20110210-1200,"",1383447316468
deactivated,workbench,org.eclipse.ui.workbench,3.6.2.M20110210-1200,"",1383447316679
activated,workbench,org.eclipse.ui.workbench,3.6.2.M20110210-1200,"",1383447330300
activated,editor,org.eclipse.jst.jsp.ui,1.1.503.v201101262228,"org.eclipse.jst.jsp.core.jspsource.source",1383447331856
deactivated,workbench,org.eclipse.ui.workbench,3.6.2.M20110210-1200,"",1383447338609
activated,workbench,org.eclipse.ui.workbench,3.6.2.M20110210-1200,"",1383447342733
deactivated,workbench,org.eclipse.ui.workbench,3.6.2.M20110210-1200,"",1383447352816
activated,workbench,org.eclipse.ui.workbench,3.6.2.M20110210-1200,"",1383447354469
executed,command,org.eclipse.ui,3.6.2.M20110203-1100,"org.eclipse.ui.edit.copy",1383447359824
activated,editor,org.eclipse.wst.css.ui,1.0.502.v201101122002,"org.eclipse.wst.css.core.csssource.source",1383447361172
deactivated,workbench,org.eclipse.ui.workbench,3.6.2.M20110210-1200,"",1383447361399
executed,command,org.eclipse.ui,3.6.2.M20110203-1100,"org.eclipse.ui.edit.findReplace",1383447361449
executed,command,org.eclipse.ui,3.6.2.M20110203-1100,"org.eclipse.ui.edit.paste",1383447361592
activated,workbench,org.eclipse.ui.workbench,3.6.2.M20110210-1200,"",1383447362461
activated,editor,org.eclipse.jst.jsp.ui,1.1.503.v201101262228,"org.eclipse.jst.jsp.core.jspsource.source",1383447367411
executed,command,org.eclipse.ui,3.6.2.M20110203-1100,"org.eclipse.ui.file.save",1383447373069
deactivated,workbench,org.eclipse.ui.workbench,3.6.2.M20110210-1200,"",1383447373361
activated,workbench,org.eclipse.ui.workbench,3.6.2.M20110210-1200,"",1383447379527
executed,command,org.eclipse.ui,3.6.2.M20110203-1100,"org.eclipse.ui.edit.undo",1383447380196
executed,command,org.eclipse.ui,3.6.2.M20110203-1100,"org.eclipse.ui.edit.undo",1383447380686
executed,command,org.eclipse.ui,3.6.2.M20110203-1100,"org.eclipse.ui.file.save",1383447381254
deactivated,workbench,org.eclipse.ui.workbench,3.6.2.M20110210-1200,"",1383447381741
activated,workbench,org.eclipse.ui.workbench,3.6.2.M20110210-1200,"",1383447393462
activated,editor,org.eclipse.wst.css.ui,1.0.502.v201101122002,"org.eclipse.wst.css.core.csssource.source",1383447394676
executed,command,org.eclipse.ui,3.6.2.M20110203-1100,"org.eclipse.ui.file.save",1383447401371
deactivated,workbench,org.eclipse.ui.workbench,3.6.2.M20110210-1200,"",1383447401674
activated,workbench,org.eclipse.ui.workbench,3.6.2.M20110210-1200,"",1383447405480
deactivated,workbench,org.eclipse.ui.workbench,3.6.2.M20110210-1200,"",1383447417477
activated,workbench,org.eclipse.ui.workbench,3.6.2.M20110210-1200,"",1383447417548
executed,command,org.eclipse.ui,3.6.2.M20110203-1100,"org.eclipse.ui.file.save",1383447417554
executed,command,org.eclipse.ui,3.6.2.M20110203-1100,"org.eclipse.ui.file.save",1383447421697
deactivated,workbench,org.eclipse.ui.workbench,3.6.2.M20110210-1200,"",1383447422041
activated,workbench,org.eclipse.ui.workbench,3.6.2.M20110210-1200,"",1383447424144
deactivated,workbench,org.eclipse.ui.workbench,3.6.2.M20110210-1200,"",1383447424697
activated,workbench,org.eclipse.ui.workbench,3.6.2.M20110210-1200,"",1383447425125
executed,command,org.eclipse.ui,3.6.2.M20110203-1100,"org.eclipse.ui.file.save",1383447427218
deactivated,workbench,org.eclipse.ui.workbench,3.6.2.M20110210-1200,"",1383447427541
activated,workbench,org.eclipse.ui.workbench,3.6.2.M20110210-1200,"",1383447430714
executed,command,org.eclipse.ui,3.6.2.M20110203-1100,"org.eclipse.ui.file.save",1383447433248
deactivated,workbench,org.eclipse.ui.workbench,3.6.2.M20110210-1200,"",1383447433640
activated,workbench,org.eclipse.ui.workbench,3.6.2.M20110210-1200,"",1383447437868
executed,command,org.eclipse.ui,3.6.2.M20110203-1100,"org.eclipse.ui.file.save",1383447440892
deactivated,workbench,org.eclipse.ui.workbench,3.6.2.M20110210-1200,"",1383447441195
activated,workbench,org.eclipse.ui.workbench,3.6.2.M20110210-1200,"",1383447464472
deactivated,workbench,org.eclipse.ui.workbench,3.6.2.M20110210-1200,"",1383447465448
activated,workbench,org.eclipse.ui.workbench,3.6.2.M20110210-1200,"",1383447467595
activated,editor,org.eclipse.jst.jsp.ui,1.1.503.v201101262228,"org.eclipse.jst.jsp.core.jspsource.source",1383447468688
executed,command,org.eclipse.ui,3.6.2.M20110203-1100,"org.eclipse.ui.file.save",1383447488018
deactivated,workbench,org.eclipse.ui.workbench,3.6.2.M20110210-1200,"",1383447488351
activated,workbench,org.eclipse.ui.workbench,3.6.2.M20110210-1200,"",1383447493243
activated,editor,org.eclipse.wst.css.ui,1.0.502.v201101122002,"org.eclipse.wst.css.core.csssource.source",1383447497890
activated,editor,org.eclipse.jst.jsp.ui,1.1.503.v201101262228,"org.eclipse.jst.jsp.core.jspsource.source",1383447499373
executed,command,org.eclipse.ui,3.6.2.M20110203-1100,"org.eclipse.ui.edit.copy",1383447501077
activated,editor,org.eclipse.wst.css.ui,1.0.502.v201101122002,"org.eclipse.wst.css.core.csssource.source",1383447502265
deactivated,workbench,org.eclipse.ui.workbench,3.6.2.M20110210-1200,"",1383447502526
executed,command,org.eclipse.ui,3.6.2.M20110203-1100,"org.eclipse.ui.edit.findReplace",1383447502584
executed,command,org.eclipse.ui,3.6.2.M20110203-1100,"org.eclipse.ui.edit.paste",1383447502800
activated,workbench,org.eclipse.ui.workbench,3.6.2.M20110210-1200,"",1383447505971
executed,command,org.eclipse.ui,3.6.2.M20110203-1100,"org.eclipse.ui.file.save",1383447509911
deactivated,workbench,org.eclipse.ui.workbench,3.6.2.M20110210-1200,"",1383447510274
activated,workbench,org.eclipse.ui.workbench,3.6.2.M20110210-1200,"",1383447513776
executed,command,org.eclipse.ui,3.6.2.M20110203-1100,"org.eclipse.ui.file.save",1383447515643
deactivated,workbench,org.eclipse.ui.workbench,3.6.2.M20110210-1200,"",1383447515934
activated,workbench,org.eclipse.ui.workbench,3.6.2.M20110210-1200,"",1383447519029
executed,command,org.eclipse.ui,3.6.2.M20110203-1100,"org.eclipse.ui.edit.delete",1383447521538
executed,command,org.eclipse.ui,3.6.2.M20110203-1100,"org.eclipse.ui.file.save",1383447521935
deactivated,workbench,org.eclipse.ui.workbench,3.6.2.M20110210-1200,"",1383447522333
activated,workbench,org.eclipse.ui.workbench,3.6.2.M20110210-1200,"",1383447524684
executed,command,org.eclipse.ui,3.6.2.M20110203-1100,"org.eclipse.ui.file.save",1383447526719
deactivated,workbench,org.eclipse.ui.workbench,3.6.2.M20110210-1200,"",1383447527137
activated,workbench,org.eclipse.ui.workbench,3.6.2.M20110210-1200,"",1383447527589
executed,command,org.eclipse.ui,3.6.2.M20110203-1100,"org.eclipse.ui.file.save",1383447529793
deactivated,workbench,org.eclipse.ui.workbench,3.6.2.M20110210-1200,"",1383447530084
activated,workbench,org.eclipse.ui.workbench,3.6.2.M20110210-1200,"",1383447532737
executed,command,org.eclipse.ui,3.6.2.M20110203-1100,"org.eclipse.ui.file.save",1383447534537
deactivated,workbench,org.eclipse.ui.workbench,3.6.2.M20110210-1200,"",1383447534811
activated,workbench,org.eclipse.ui.workbench,3.6.2.M20110210-1200,"",1383447538380
executed,command,org.eclipse.ui,3.6.2.M20110203-1100,"org.eclipse.ui.file.save",1383447540528
deactivated,workbench,org.eclipse.ui.workbench,3.6.2.M20110210-1200,"",1383447540881
activated,workbench,org.eclipse.ui.workbench,3.6.2.M20110210-1200,"",1383447559366
activated,editor,org.eclipse.jst.jsp.ui,1.1.503.v201101262228,"org.eclipse.jst.jsp.core.jspsource.source",1383447560624
activated,editor,org.eclipse.wst.css.ui,1.0.502.v201101122002,"org.eclipse.wst.css.core.csssource.source",1383447564591
activated,editor,org.eclipse.jst.jsp.ui,1.1.503.v201101262228,"org.eclipse.jst.jsp.core.jspsource.source",1383447565959
executed,command,org.eclipse.ui,3.6.2.M20110203-1100,"org.eclipse.ui.edit.copy",1383447569272
activated,editor,org.eclipse.wst.css.ui,1.0.502.v201101122002,"org.eclipse.wst.css.core.csssource.source",1383447570494
deactivated,workbench,org.eclipse.ui.workbench,3.6.2.M20110210-1200,"",1383447570736
executed,command,org.eclipse.ui,3.6.2.M20110203-1100,"org.eclipse.ui.edit.findReplace",1383447570777
executed,command,org.eclipse.ui,3.6.2.M20110203-1100,"org.eclipse.ui.edit.paste",1383447571023
activated,workbench,org.eclipse.ui.workbench,3.6.2.M20110210-1200,"",1383447572770
executed,command,org.eclipse.ui,3.6.2.M20110203-1100,"org.eclipse.ui.file.save",1383447576719
deactivated,workbench,org.eclipse.ui.workbench,3.6.2.M20110210-1200,"",1383447576968
activated,workbench,org.eclipse.ui.workbench,3.6.2.M20110210-1200,"",1383447583286
executed,command,org.eclipse.ui,3.6.2.M20110203-1100,"org.eclipse.ui.file.save",1383447586622
deactivated,workbench,org.eclipse.ui.workbench,3.6.2.M20110210-1200,"",1383447586967
activated,workbench,org.eclipse.ui.workbench,3.6.2.M20110210-1200,"",1383447603910
activated,editor,org.eclipse.jst.jsp.ui,1.1.503.v201101262228,"org.eclipse.jst.jsp.core.jspsource.source",1383447606711
deactivated,workbench,org.eclipse.ui.workbench,3.6.2.M20110210-1200,"",1383447607183
activated,workbench,org.eclipse.ui.workbench,3.6.2.M20110210-1200,"",1383447608252
activated,editor,org.eclipse.wst.css.ui,1.0.502.v201101122002,"org.eclipse.wst.css.core.csssource.source",1383447610148
activated,editor,org.eclipse.jst.jsp.ui,1.1.503.v201101262228,"org.eclipse.jst.jsp.core.jspsource.source",1383447611449
executed,command,org.eclipse.ui,3.6.2.M20110203-1100,"org.eclipse.ui.file.save",1383447620000
deactivated,workbench,org.eclipse.ui.workbench,3.6.2.M20110210-1200,"",1383447620279
activated,workbench,org.eclipse.ui.workbench,3.6.2.M20110210-1200,"",1383447629438
executed,command,org.eclipse.ui,3.6.2.M20110203-1100,"org.eclipse.ui.file.save",1383447636644
executed,command,org.eclipse.ui,3.6.2.M20110203-1100,"org.eclipse.ui.edit.copy",1383447638171
activated,editor,org.eclipse.wst.css.ui,1.0.502.v201101122002,"org.eclipse.wst.css.core.csssource.source",1383447639221
executed,command,org.eclipse.ui,3.6.2.M20110203-1100,"org.eclipse.ui.edit.paste",1383447641510
executed,command,org.eclipse.ui,3.6.2.M20110203-1100,"org.eclipse.ui.file.save",1383447653682
deactivated,workbench,org.eclipse.ui.workbench,3.6.2.M20110210-1200,"",1383447654101
activated,workbench,org.eclipse.ui.workbench,3.6.2.M20110210-1200,"",1383447664510
activated,editor,org.eclipse.jst.jsp.ui,1.1.503.v201101262228,"org.eclipse.jst.jsp.core.jspsource.source",1383447666290
executed,command,org.eclipse.ui,3.6.2.M20110203-1100,"org.eclipse.ui.edit.copy",1383447668815
executed,command,org.eclipse.ui,3.6.2.M20110203-1100,"org.eclipse.ui.edit.copy",1383447669085
executed,command,org.eclipse.ui,3.6.2.M20110203-1100,"org.eclipse.ui.edit.copy",1383447669393
executed,command,org.eclipse.ui,3.6.2.M20110203-1100,"org.eclipse.ui.edit.copy",1383447670573
activated,editor,org.eclipse.wst.css.ui,1.0.502.v201101122002,"org.eclipse.wst.css.core.csssource.source",1383447671598
deactivated,workbench,org.eclipse.ui.workbench,3.6.2.M20110210-1200,"",1383447671854
executed,command,org.eclipse.ui,3.6.2.M20110203-1100,"org.eclipse.ui.edit.findReplace",1383447671890
executed,command,org.eclipse.ui,3.6.2.M20110203-1100,"org.eclipse.ui.edit.paste",1383447672110
activated,workbench,org.eclipse.ui.workbench,3.6.2.M20110210-1200,"",1383447673568
executed,command,org.eclipse.ui,3.6.2.M20110203-1100,"org.eclipse.ui.file.save",1383447678609
deactivated,workbench,org.eclipse.ui.workbench,3.6.2.M20110210-1200,"",1383447678905
activated,workbench,org.eclipse.ui.workbench,3.6.2.M20110210-1200,"",1383447685238
activated,editor,org.eclipse.jst.jsp.ui,1.1.503.v201101262228,"org.eclipse.jst.jsp.core.jspsource.source",1383447686549
executed,command,org.eclipse.ui,3.6.2.M20110203-1100,"org.eclipse.ui.edit.cut",1383447695707
executed,command,org.eclipse.ui,3.6.2.M20110203-1100,"org.eclipse.ui.edit.paste",1383447698480
executed,command,org.eclipse.ui,3.6.2.M20110203-1100,"org.eclipse.ui.file.save",1383447698938
deactivated,workbench,org.eclipse.ui.workbench,3.6.2.M20110210-1200,"",1383447700224
activated,workbench,org.eclipse.ui.workbench,3.6.2.M20110210-1200,"",1383447704290
deactivated,workbench,org.eclipse.ui.workbench,3.6.2.M20110210-1200,"",1383447706996
activated,workbench,org.eclipse.ui.workbench,3.6.2.M20110210-1200,"",1383447708843
executed,command,org.eclipse.ui,3.6.2.M20110203-1100,"org.eclipse.ui.edit.undo",1383447709690
executed,command,org.eclipse.ui,3.6.2.M20110203-1100,"org.eclipse.ui.edit.undo",1383447710023
executed,command,org.eclipse.ui,3.6.2.M20110203-1100,"org.eclipse.ui.edit.undo",1383447711473
executed,command,org.eclipse.ui,3.6.2.M20110203-1100,"org.eclipse.ui.edit.undo",1383447712274
executed,command,org.eclipse.ui,3.6.2.M20110203-1100,"org.eclipse.ui.file.save",1383447712872
deactivated,workbench,org.eclipse.ui.workbench,3.6.2.M20110210-1200,"",1383447713303
activated,workbench,org.eclipse.ui.workbench,3.6.2.M20110210-1200,"",1383447784711
executed,command,org.eclipse.ui,3.6.2.M20110203-1100,"org.eclipse.ui.file.save",1383447791480
deactivated,workbench,org.eclipse.ui.workbench,3.6.2.M20110210-1200,"",1383447791818
activated,workbench,org.eclipse.ui.workbench,3.6.2.M20110210-1200,"",1383447799484
executed,command,org.eclipse.ui,3.6.2.M20110203-1100,"org.eclipse.ui.file.save",1383447804063
executed,command,org.eclipse.ui,3.6.2.M20110203-1100,"org.eclipse.ui.edit.delete",1383447804952
executed,command,org.eclipse.ui,3.6.2.M20110203-1100,"org.eclipse.ui.file.save",1383447805391
deactivated,workbench,org.eclipse.ui.workbench,3.6.2.M20110210-1200,"",1383447805672
