what,kind,bundleId,bundleVersion,description,time
executed,command,org.eclipse.ui,3.6.2.M20110203-1100,"org.eclipse.ui.edit.paste",1383008097658
executed,command,org.eclipse.ui,3.6.2.M20110203-1100,"org.eclipse.ui.file.save",1383008098805
started,bundle,org.eclipse.wst.xsl.exslt.core,1.0.0.v201005240426,"org.eclipse.wst.xsl.exslt.core",1383008098953
activated,editor,org.eclipse.jst.jsp.ui,1.1.503.v201101262228,"org.eclipse.jst.jsp.core.jspsource.source",1383008099841
activated,editor,org.eclipse.jst.jsp.ui,1.1.503.v201101262228,"org.eclipse.jst.jsp.core.jspsource.source",1383008102799
activated,editor,org.eclipse.jst.jsp.ui,1.1.503.v201101262228,"org.eclipse.jst.jsp.core.jspsource.source",1383008106251
activated,editor,org.eclipse.jst.jsp.ui,1.1.503.v201101262228,"org.eclipse.jst.jsp.core.jspsource.source",1383008109421
activated,editor,org.eclipse.jst.jsp.ui,1.1.503.v201101262228,"org.eclipse.jst.jsp.core.jspsource.source",1383008111373
executed,command,org.eclipse.ui,3.6.2.M20110203-1100,"org.eclipse.ui.edit.paste",1383008112782
executed,command,org.eclipse.ui,3.6.2.M20110203-1100,"org.eclipse.ui.file.save",1383008113233
deactivated,workbench,org.eclipse.ui.workbench,3.6.2.M20110210-1200,"",1383008113710
activated,workbench,org.eclipse.ui.workbench,3.6.2.M20110210-1200,"",1383008198642
deactivated,workbench,org.eclipse.ui.workbench,3.6.2.M20110210-1200,"",1383008199491
activated,workbench,org.eclipse.ui.workbench,3.6.2.M20110210-1200,"",1383008305369
deactivated,workbench,org.eclipse.ui.workbench,3.6.2.M20110210-1200,"",1383008307318
activated,workbench,org.eclipse.ui.workbench,3.6.2.M20110210-1200,"",1383008309419
deactivated,workbench,org.eclipse.ui.workbench,3.6.2.M20110210-1200,"",1383008310025
activated,workbench,org.eclipse.ui.workbench,3.6.2.M20110210-1200,"",1383008314841
deactivated,workbench,org.eclipse.ui.workbench,3.6.2.M20110210-1200,"",1383008315797
activated,workbench,org.eclipse.ui.workbench,3.6.2.M20110210-1200,"",1383008321205
deactivated,workbench,org.eclipse.ui.workbench,3.6.2.M20110210-1200,"",1383008329389
activated,workbench,org.eclipse.ui.workbench,3.6.2.M20110210-1200,"",1383008331304
started,bundle,org.eclipse.wst.internet.cache,1.0.400.v201004280700,"org.eclipse.wst.internet.cache",1383008334018
started,bundle,org.eclipse.jst.jsf.facelet.core,1.0.2.v201101042130,"org.eclipse.jst.jsf.facelet.core",1383008336368
executed,command,org.eclipse.ui,3.6.2.M20110203-1100,"org.eclipse.ui.edit.cut",1383008343257
executed,command,org.eclipse.ui,3.6.2.M20110203-1100,"org.eclipse.ui.file.save",1383008343559
activated,editor,org.eclipse.jdt.ui,3.6.2.r362_v20110203,"org.eclipse.jdt.ui.CompilationUnitEditor",1383008344748
activated,editor,org.eclipse.jst.jsp.ui,1.1.503.v201101262228,"org.eclipse.jst.jsp.core.jspsource.source",1383008345602
executed,command,org.eclipse.ui,3.6.2.M20110203-1100,"org.eclipse.ui.edit.cut",1383008350722
executed,command,org.eclipse.ui,3.6.2.M20110203-1100,"org.eclipse.ui.file.save",1383008351053
activated,editor,org.eclipse.jst.jsp.ui,1.1.503.v201101262228,"org.eclipse.jst.jsp.core.jspsource.source",1383008352801
executed,command,org.eclipse.ui,3.6.2.M20110203-1100,"org.eclipse.ui.file.save",1383008371247
executed,command,org.eclipse.ui,3.6.2.M20110203-1100,"org.eclipse.ui.edit.copy",1383008373098
activated,view,org.eclipse.ui.navigator.resources,3.4.202.M20101124-0800,"org.eclipse.ui.navigator.ProjectExplorer",1383008377082
opened,editor,org.eclipse.wst.css.ui,1.0.502.v201101122002,"org.eclipse.wst.css.core.csssource.source",1383008378150
activated,editor,org.eclipse.wst.css.ui,1.0.502.v201101122002,"org.eclipse.wst.css.core.csssource.source",1383008378237
executed,command,org.eclipse.ui,3.6.2.M20110203-1100,"org.eclipse.ui.file.save",1383008401832
deactivated,workbench,org.eclipse.ui.workbench,3.6.2.M20110210-1200,"",1383008402059
activated,workbench,org.eclipse.ui.workbench,3.6.2.M20110210-1200,"",1383008406001
executed,command,org.eclipse.ui,3.6.2.M20110203-1100,"org.eclipse.ui.file.save",1383008414456
deactivated,workbench,org.eclipse.ui.workbench,3.6.2.M20110210-1200,"",1383008414715
activated,workbench,org.eclipse.ui.workbench,3.6.2.M20110210-1200,"",1383008424004
executed,command,org.eclipse.ui,3.6.2.M20110203-1100,"org.eclipse.ui.file.save",1383008428918
executed,command,org.eclipse.ui,3.6.2.M20110203-1100,"org.eclipse.ui.edit.text.contentAssist.proposals",1383008436352
executed,command,org.eclipse.ui,3.6.2.M20110203-1100,"org.eclipse.ui.file.save",1383008437812
deactivated,workbench,org.eclipse.ui.workbench,3.6.2.M20110210-1200,"",1383008438007
activated,workbench,org.eclipse.ui.workbench,3.6.2.M20110210-1200,"",1383008440169
executed,command,org.eclipse.ui,3.6.2.M20110203-1100,"org.eclipse.ui.file.save",1383008445921
deactivated,workbench,org.eclipse.ui.workbench,3.6.2.M20110210-1200,"",1383008446183
activated,workbench,org.eclipse.ui.workbench,3.6.2.M20110210-1200,"",1383008450903
deactivated,workbench,org.eclipse.ui.workbench,3.6.2.M20110210-1200,"",1383008452052
activated,workbench,org.eclipse.ui.workbench,3.6.2.M20110210-1200,"",1383008455432
executed,command,org.eclipse.ui,3.6.2.M20110203-1100,"org.eclipse.ui.file.save",1383008460657
deactivated,workbench,org.eclipse.ui.workbench,3.6.2.M20110210-1200,"",1383008461240
activated,workbench,org.eclipse.ui.workbench,3.6.2.M20110210-1200,"",1383008465395
executed,command,org.eclipse.ui,3.6.2.M20110203-1100,"org.eclipse.ui.file.save",1383008475055
deactivated,workbench,org.eclipse.ui.workbench,3.6.2.M20110210-1200,"",1383008475248
activated,workbench,org.eclipse.ui.workbench,3.6.2.M20110210-1200,"",1383008481228
deactivated,workbench,org.eclipse.ui.workbench,3.6.2.M20110210-1200,"",1383008482332
activated,workbench,org.eclipse.ui.workbench,3.6.2.M20110210-1200,"",1383008484460
executed,command,org.eclipse.ui,3.6.2.M20110203-1100,"org.eclipse.ui.edit.undo",1383008485049
executed,command,org.eclipse.ui,3.6.2.M20110203-1100,"org.eclipse.ui.edit.text.contentAssist.proposals",1383008489573
executed,command,org.eclipse.ui,3.6.2.M20110203-1100,"org.eclipse.ui.file.save",1383008492321
deactivated,workbench,org.eclipse.ui.workbench,3.6.2.M20110210-1200,"",1383008492714
activated,workbench,org.eclipse.ui.workbench,3.6.2.M20110210-1200,"",1383008500985
executed,command,org.eclipse.ui,3.6.2.M20110203-1100,"org.eclipse.ui.file.save",1383008514263
deactivated,workbench,org.eclipse.ui.workbench,3.6.2.M20110210-1200,"",1383008514661
activated,workbench,org.eclipse.ui.workbench,3.6.2.M20110210-1200,"",1383008522367
executed,command,org.eclipse.ui,3.6.2.M20110203-1100,"org.eclipse.ui.edit.cut",1383008525690
executed,command,org.eclipse.ui,3.6.2.M20110203-1100,"org.eclipse.ui.edit.paste",1383008529471
executed,command,org.eclipse.ui,3.6.2.M20110203-1100,"org.eclipse.ui.file.save",1383008529801
deactivated,workbench,org.eclipse.ui.workbench,3.6.2.M20110210-1200,"",1383008530239
activated,workbench,org.eclipse.ui.workbench,3.6.2.M20110210-1200,"",1383008539559
deactivated,workbench,org.eclipse.ui.workbench,3.6.2.M20110210-1200,"",1383008540211
activated,workbench,org.eclipse.ui.workbench,3.6.2.M20110210-1200,"",1383008542787
executed,command,org.eclipse.ui,3.6.2.M20110203-1100,"org.eclipse.ui.edit.text.contentAssist.proposals",1383008548385
executed,command,org.eclipse.ui,3.6.2.M20110203-1100,"org.eclipse.ui.file.save",1383008550176
deactivated,workbench,org.eclipse.ui.workbench,3.6.2.M20110210-1200,"",1383008550727
activated,workbench,org.eclipse.ui.workbench,3.6.2.M20110210-1200,"",1383008563771
executed,command,org.eclipse.ui,3.6.2.M20110203-1100,"org.eclipse.ui.edit.cut",1383008566030
executed,command,org.eclipse.ui,3.6.2.M20110203-1100,"org.eclipse.ui.file.save",1383008566394
executed,command,org.eclipse.ui,3.6.2.M20110203-1100,"org.eclipse.ui.file.save",1383008568127
deactivated,workbench,org.eclipse.ui.workbench,3.6.2.M20110210-1200,"",1383008569837
activated,workbench,org.eclipse.ui.workbench,3.6.2.M20110210-1200,"",1383008584097
activated,editor,org.eclipse.jst.jsp.ui,1.1.503.v201101262228,"org.eclipse.jst.jsp.core.jspsource.source",1383008586918
executed,command,org.eclipse.ui,3.6.2.M20110203-1100,"org.eclipse.ui.edit.undo",1383008588220
executed,command,org.eclipse.ui,3.6.2.M20110203-1100,"org.eclipse.ui.edit.undo",1383008588623
executed,command,org.eclipse.ui,3.6.2.M20110203-1100,"org.eclipse.ui.edit.undo",1383008588977
executed,command,org.eclipse.ui,3.6.2.M20110203-1100,"org.eclipse.ui.edit.undo",1383008589235
executed,command,org.eclipse.ui,3.6.2.M20110203-1100,"org.eclipse.ui.file.save",1383008590407
activated,editor,org.eclipse.jst.jsp.ui,1.1.503.v201101262228,"org.eclipse.jst.jsp.core.jspsource.source",1383008591455
activated,editor,org.eclipse.jst.jsp.ui,1.1.503.v201101262228,"org.eclipse.jst.jsp.core.jspsource.source",1383008592263
activated,editor,org.eclipse.jst.jsp.ui,1.1.503.v201101262228,"org.eclipse.jst.jsp.core.jspsource.source",1383008593922
deactivated,workbench,org.eclipse.ui.workbench,3.6.2.M20110210-1200,"",1383008595054
activated,workbench,org.eclipse.ui.workbench,3.6.2.M20110210-1200,"",1383008595624
activated,editor,org.eclipse.jst.jsp.ui,1.1.503.v201101262228,"org.eclipse.jst.jsp.core.jspsource.source",1383008596493
activated,editor,org.eclipse.jst.jsp.ui,1.1.503.v201101262228,"org.eclipse.jst.jsp.core.jspsource.source",1383008599562
activated,editor,org.eclipse.jst.jsp.ui,1.1.503.v201101262228,"org.eclipse.jst.jsp.core.jspsource.source",1383008600751
deactivated,workbench,org.eclipse.ui.workbench,3.6.2.M20110210-1200,"",1383008601059
activated,workbench,org.eclipse.ui.workbench,3.6.2.M20110210-1200,"",1383008612960
activated,editor,org.eclipse.jdt.ui,3.6.2.r362_v20110203,"org.eclipse.jdt.ui.CompilationUnitEditor",1383008615734
activated,editor,org.eclipse.jst.jsp.ui,1.1.503.v201101262228,"org.eclipse.jst.jsp.core.jspsource.source",1383008617460
activated,editor,org.eclipse.jdt.ui,3.6.2.r362_v20110203,"org.eclipse.jdt.ui.CompilationUnitEditor",1383008618133
deactivated,workbench,org.eclipse.ui.workbench,3.6.2.M20110210-1200,"",1383008618498
activated,workbench,org.eclipse.ui.workbench,3.6.2.M20110210-1200,"",1383008629406
activated,view,org.eclipse.ui.console,3.5.0.v20100526,"org.eclipse.ui.console.ConsoleView",1383008632028
activated,editor,org.eclipse.jdt.ui,3.6.2.r362_v20110203,"org.eclipse.jdt.ui.CompilationUnitEditor",1383008634626
deactivated,workbench,org.eclipse.ui.workbench,3.6.2.M20110210-1200,"",1383008635176
activated,workbench,org.eclipse.ui.workbench,3.6.2.M20110210-1200,"",1383008647299
activated,view,org.eclipse.ui.console,3.5.0.v20100526,"org.eclipse.ui.console.ConsoleView",1383008647323
deactivated,workbench,org.eclipse.ui.workbench,3.6.2.M20110210-1200,"",1383008659192
activated,workbench,org.eclipse.ui.workbench,3.6.2.M20110210-1200,"",1383008663371
deactivated,workbench,org.eclipse.ui.workbench,3.6.2.M20110210-1200,"",1383008664130
deactivated,workbench,org.eclipse.ui.workbench,3.6.2.M20110210-1200,"",1383008664281
activated,workbench,org.eclipse.ui.workbench,3.6.2.M20110210-1200,"",1383008664924
deactivated,workbench,org.eclipse.ui.workbench,3.6.2.M20110210-1200,"",1383008665328
activated,workbench,org.eclipse.ui.workbench,3.6.2.M20110210-1200,"",1383008665705
activated,editor,org.eclipse.jdt.ui,3.6.2.r362_v20110203,"org.eclipse.jdt.ui.CompilationUnitEditor",1383008666744
activated,editor,org.eclipse.jst.jsp.ui,1.1.503.v201101262228,"org.eclipse.jst.jsp.core.jspsource.source",1383008669396
executed,command,org.eclipse.ui,3.6.2.M20110203-1100,"org.eclipse.ui.file.save",1383008677986
executed,command,org.eclipse.ui,3.6.2.M20110203-1100,"org.eclipse.ui.file.save",1383008685200
deactivated,workbench,org.eclipse.ui.workbench,3.6.2.M20110210-1200,"",1383008685549
activated,workbench,org.eclipse.ui.workbench,3.6.2.M20110210-1200,"",1383008692758
executed,command,org.eclipse.ui,3.6.2.M20110203-1100,"org.eclipse.ui.edit.copy",1383008694619
executed,command,org.eclipse.ui,3.6.2.M20110203-1100,"org.eclipse.ui.edit.copy",1383008694821
executed,command,org.eclipse.ui,3.6.2.M20110203-1100,"org.eclipse.ui.edit.copy",1383008695047
activated,editor,org.eclipse.wst.css.ui,1.0.502.v201101122002,"org.eclipse.wst.css.core.csssource.source",1383008697025
deactivated,workbench,org.eclipse.ui.workbench,3.6.2.M20110210-1200,"",1383008697418
executed,command,org.eclipse.ui,3.6.2.M20110203-1100,"org.eclipse.ui.edit.findReplace",1383008697442
executed,command,org.eclipse.ui,3.6.2.M20110203-1100,"org.eclipse.ui.edit.paste",1383008697606
activated,workbench,org.eclipse.ui.workbench,3.6.2.M20110210-1200,"",1383008698649
executed,command,org.eclipse.ui,3.6.2.M20110203-1100,"org.eclipse.ui.file.save",1383008716565
deactivated,workbench,org.eclipse.ui.workbench,3.6.2.M20110210-1200,"",1383008716799
activated,workbench,org.eclipse.ui.workbench,3.6.2.M20110210-1200,"",1383008718842
executed,command,org.eclipse.ui,3.6.2.M20110203-1100,"org.eclipse.ui.edit.undo",1383008719288
executed,command,org.eclipse.ui,3.6.2.M20110203-1100,"org.eclipse.ui.edit.undo",1383008719747
executed,command,org.eclipse.ui,3.6.2.M20110203-1100,"org.eclipse.ui.file.save",1383008720318
deactivated,workbench,org.eclipse.ui.workbench,3.6.2.M20110210-1200,"",1383008720549
activated,workbench,org.eclipse.ui.workbench,3.6.2.M20110210-1200,"",1383008728056
executed,command,org.eclipse.ui,3.6.2.M20110203-1100,"org.eclipse.ui.edit.text.contentAssist.proposals",1383008731728
executed,command,org.eclipse.ui,3.6.2.M20110203-1100,"org.eclipse.ui.edit.delete",1383008735702
executed,command,org.eclipse.ui,3.6.2.M20110203-1100,"org.eclipse.ui.edit.delete",1383008735875
executed,command,org.eclipse.ui,3.6.2.M20110203-1100,"org.eclipse.ui.edit.delete",1383008736044
executed,command,org.eclipse.ui,3.6.2.M20110203-1100,"org.eclipse.ui.edit.delete",1383008736209
executed,command,org.eclipse.ui,3.6.2.M20110203-1100,"org.eclipse.ui.edit.text.contentAssist.proposals",1383008736526
executed,command,org.eclipse.ui,3.6.2.M20110203-1100,"org.eclipse.ui.file.save",1383008738238
deactivated,workbench,org.eclipse.ui.workbench,3.6.2.M20110210-1200,"",1383008738675
activated,workbench,org.eclipse.ui.workbench,3.6.2.M20110210-1200,"",1383008741632
deactivated,workbench,org.eclipse.ui.workbench,3.6.2.M20110210-1200,"",1383008742687
activated,workbench,org.eclipse.ui.workbench,3.6.2.M20110210-1200,"",1383008745864
executed,command,org.eclipse.ui,3.6.2.M20110203-1100,"org.eclipse.ui.edit.text.contentAssist.proposals",1383008747365
executed,command,org.eclipse.ui,3.6.2.M20110203-1100,"org.eclipse.ui.file.save",1383008752521
deactivated,workbench,org.eclipse.ui.workbench,3.6.2.M20110210-1200,"",1383008752859
activated,workbench,org.eclipse.ui.workbench,3.6.2.M20110210-1200,"",1383008753274
executed,command,org.eclipse.ui,3.6.2.M20110203-1100,"org.eclipse.ui.edit.delete",1383008753940
executed,command,org.eclipse.ui,3.6.2.M20110203-1100,"org.eclipse.ui.edit.delete",1383008754109
executed,command,org.eclipse.ui,3.6.2.M20110203-1100,"org.eclipse.ui.file.save",1383008754425
deactivated,workbench,org.eclipse.ui.workbench,3.6.2.M20110210-1200,"",1383008754655
activated,workbench,org.eclipse.ui.workbench,3.6.2.M20110210-1200,"",1383008756489
executed,command,org.eclipse.ui,3.6.2.M20110203-1100,"org.eclipse.ui.edit.text.contentAssist.proposals",1383008759409
executed,command,org.eclipse.ui,3.6.2.M20110203-1100,"org.eclipse.ui.file.save",1383008763258
deactivated,workbench,org.eclipse.ui.workbench,3.6.2.M20110210-1200,"",1383008763645
activated,workbench,org.eclipse.ui.workbench,3.6.2.M20110210-1200,"",1383008765514
executed,command,org.eclipse.ui,3.6.2.M20110203-1100,"org.eclipse.ui.edit.text.contentAssist.proposals",1383008766863
executed,command,org.eclipse.ui,3.6.2.M20110203-1100,"org.eclipse.ui.file.save",1383008769172
deactivated,workbench,org.eclipse.ui.workbench,3.6.2.M20110210-1200,"",1383008769478
activated,workbench,org.eclipse.ui.workbench,3.6.2.M20110210-1200,"",1383008772934
deactivated,workbench,org.eclipse.ui.workbench,3.6.2.M20110210-1200,"",1383008773085
activated,workbench,org.eclipse.ui.workbench,3.6.2.M20110210-1200,"",1383008776458
executed,command,org.eclipse.ui,3.6.2.M20110203-1100,"org.eclipse.ui.edit.text.contentAssist.proposals",1383008778044
executed,command,org.eclipse.ui,3.6.2.M20110203-1100,"org.eclipse.ui.edit.text.contentAssist.proposals",1383008782156
executed,command,org.eclipse.ui,3.6.2.M20110203-1100,"org.eclipse.ui.file.save",1383008784773
deactivated,workbench,org.eclipse.ui.workbench,3.6.2.M20110210-1200,"",1383008785033
activated,workbench,org.eclipse.ui.workbench,3.6.2.M20110210-1200,"",1383008788557
executed,command,org.eclipse.ui,3.6.2.M20110203-1100,"org.eclipse.ui.edit.text.contentAssist.proposals",1383008790295
executed,command,org.eclipse.ui,3.6.2.M20110203-1100,"org.eclipse.ui.file.save",1383008795059
deactivated,workbench,org.eclipse.ui.workbench,3.6.2.M20110210-1200,"",1383008795318
activated,workbench,org.eclipse.ui.workbench,3.6.2.M20110210-1200,"",1383008798544
deactivated,workbench,org.eclipse.ui.workbench,3.6.2.M20110210-1200,"",1383008799201
activated,workbench,org.eclipse.ui.workbench,3.6.2.M20110210-1200,"",1383008806447
executed,command,org.eclipse.ui,3.6.2.M20110203-1100,"org.eclipse.ui.edit.text.contentAssist.proposals",1383008811063
executed,command,org.eclipse.ui,3.6.2.M20110203-1100,"org.eclipse.ui.file.save",1383008811773
deactivated,workbench,org.eclipse.ui.workbench,3.6.2.M20110210-1200,"",1383008812047
activated,workbench,org.eclipse.ui.workbench,3.6.2.M20110210-1200,"",1383008815852
deactivated,workbench,org.eclipse.ui.workbench,3.6.2.M20110210-1200,"",1383008817310
activated,workbench,org.eclipse.ui.workbench,3.6.2.M20110210-1200,"",1383008825179
executed,command,org.eclipse.ui,3.6.2.M20110203-1100,"org.eclipse.ui.edit.paste",1383008826686
executed,command,org.eclipse.ui,3.6.2.M20110203-1100,"org.eclipse.ui.file.save",1383008827122
deactivated,workbench,org.eclipse.ui.workbench,3.6.2.M20110210-1200,"",1383008827369
activated,workbench,org.eclipse.ui.workbench,3.6.2.M20110210-1200,"",1383008832178
executed,command,org.eclipse.ui,3.6.2.M20110203-1100,"org.eclipse.ui.file.save",1383008837806
deactivated,workbench,org.eclipse.ui.workbench,3.6.2.M20110210-1200,"",1383008838094
activated,workbench,org.eclipse.ui.workbench,3.6.2.M20110210-1200,"",1383008841283
executed,command,org.eclipse.ui,3.6.2.M20110203-1100,"org.eclipse.ui.file.save",1383008844644
deactivated,workbench,org.eclipse.ui.workbench,3.6.2.M20110210-1200,"",1383008844905
activated,workbench,org.eclipse.ui.workbench,3.6.2.M20110210-1200,"",1383008867180
deactivated,workbench,org.eclipse.ui.workbench,3.6.2.M20110210-1200,"",1383008872955
activated,workbench,org.eclipse.ui.workbench,3.6.2.M20110210-1200,"",1383008899494
activated,view,org.eclipse.ui.navigator.resources,3.4.202.M20101124-0800,"org.eclipse.ui.navigator.ProjectExplorer",1383008901551
executed,command,org.eclipse.ui,3.6.2.M20110203-1100,"org.eclipse.ui.edit.paste",1383008904079
opened,editor,org.eclipse.jdt.ui,3.6.2.r362_v20110203,"org.eclipse.jdt.ui.CompilationUnitEditor",1383008905806
activated,editor,org.eclipse.jdt.ui,3.6.2.r362_v20110203,"org.eclipse.jdt.ui.CompilationUnitEditor",1383008905892
started,bundle,org.eclipse.jdt.junit,3.6.1.r361_v20100825-0800,"org.eclipse.jdt.junit",1383008905971
activated,view,org.eclipse.ui.navigator.resources,3.4.202.M20101124-0800,"org.eclipse.ui.navigator.ProjectExplorer",1383008909721
deactivated,workbench,org.eclipse.ui.workbench,3.6.2.M20110210-1200,"",1383008912812
closed,editor,org.eclipse.jdt.ui,3.6.2.r362_v20110203,"org.eclipse.jdt.ui.CompilationUnitEditor",1383008915829
activated,workbench,org.eclipse.ui.workbench,3.6.2.M20110210-1200,"",1383008915883
executed,command,org.eclipse.ui,3.6.2.M20110203-1100,"org.eclipse.ui.edit.delete",1383008915888
deactivated,workbench,org.eclipse.ui.workbench,3.6.2.M20110210-1200,"",1383008919166
activated,workbench,org.eclipse.ui.workbench,3.6.2.M20110210-1200,"",1383008929559
executed,command,org.eclipse.ui,3.6.2.M20110203-1100,"org.eclipse.ui.edit.paste",1383008932415
opened,editor,org.eclipse.jdt.ui,3.6.2.r362_v20110203,"org.eclipse.jdt.ui.CompilationUnitEditor",1383008933567
activated,editor,org.eclipse.jdt.ui,3.6.2.r362_v20110203,"org.eclipse.jdt.ui.CompilationUnitEditor",1383008933633
started,bundle,org.eclipse.pde.launching,3.6.0.v20100601,"org.eclipse.pde.launching",1383008936679
started,bundle,org.eclipse.ui.views.log,1.0.100.v20110210_r362,"org.eclipse.ui.views.log",1383008936681
started,bundle,org.eclipse.pde.ui,3.6.1.v20110210_r362,"org.eclipse.pde.ui",1383008936683
activated,view,org.eclipse.ui.navigator.resources,3.4.202.M20101124-0800,"org.eclipse.ui.navigator.ProjectExplorer",1383008937427
activated,editor,org.eclipse.jdt.ui,3.6.2.r362_v20110203,"org.eclipse.jdt.ui.CompilationUnitEditor",1383008972363
deactivated,workbench,org.eclipse.ui.workbench,3.6.2.M20110210-1200,"",1383008979601
activated,workbench,org.eclipse.ui.workbench,3.6.2.M20110210-1200,"",1383008980350
deactivated,workbench,org.eclipse.ui.workbench,3.6.2.M20110210-1200,"",1383008980916
activated,workbench,org.eclipse.ui.workbench,3.6.2.M20110210-1200,"",1383008983486
deactivated,workbench,org.eclipse.ui.workbench,3.6.2.M20110210-1200,"",1383008993467
activated,workbench,org.eclipse.ui.workbench,3.6.2.M20110210-1200,"",1383008994336
deactivated,workbench,org.eclipse.ui.workbench,3.6.2.M20110210-1200,"",1383008998208
activated,workbench,org.eclipse.ui.workbench,3.6.2.M20110210-1200,"",1383008999331
executed,command,org.eclipse.ui.workbench.texteditor,3.6.1.r361_v20100714-0800,"org.eclipse.ui.edit.text.toggleOverwrite",1383009003282
executed,command,org.eclipse.ui.workbench.texteditor,3.6.1.r361_v20100714-0800,"org.eclipse.ui.edit.text.toggleOverwrite",1383009003427
executed,command,org.eclipse.ui.workbench.texteditor,3.6.1.r361_v20100714-0800,"org.eclipse.ui.edit.text.toggleOverwrite",1383009003610
executed,command,org.eclipse.ui.workbench.texteditor,3.6.1.r361_v20100714-0800,"org.eclipse.ui.edit.text.toggleOverwrite",1383009004019
executed,command,org.eclipse.ui,3.6.2.M20110203-1100,"org.eclipse.ui.edit.delete",1383009004255
executed,command,org.eclipse.ui,3.6.2.M20110203-1100,"org.eclipse.ui.edit.delete",1383009004441
executed,command,org.eclipse.ui,3.6.2.M20110203-1100,"org.eclipse.ui.edit.delete",1383009004736
executed,command,org.eclipse.ui,3.6.2.M20110203-1100,"org.eclipse.ui.file.save",1383009005262
executed,command,org.eclipse.ui,3.6.2.M20110203-1100,"org.eclipse.ui.edit.copy",1383009008701
executed,command,org.eclipse.ui,3.6.2.M20110203-1100,"org.eclipse.ui.edit.paste",1383009013381
executed,command,org.eclipse.ui,3.6.2.M20110203-1100,"org.eclipse.ui.edit.copy",1383009016818
executed,command,org.eclipse.ui,3.6.2.M20110203-1100,"org.eclipse.ui.edit.paste",1383009020958
executed,command,org.eclipse.ui,3.6.2.M20110203-1100,"org.eclipse.ui.edit.copy",1383009023690
executed,command,org.eclipse.ui,3.6.2.M20110203-1100,"org.eclipse.ui.edit.paste",1383009027084
executed,command,org.eclipse.ui,3.6.2.M20110203-1100,"org.eclipse.ui.edit.copy",1383009028659
executed,command,org.eclipse.ui,3.6.2.M20110203-1100,"org.eclipse.ui.edit.paste",1383009031296
executed,command,org.eclipse.ui,3.6.2.M20110203-1100,"org.eclipse.ui.edit.copy",1383009039657
executed,command,org.eclipse.ui,3.6.2.M20110203-1100,"org.eclipse.ui.edit.paste",1383009042467
executed,command,org.eclipse.ui,3.6.2.M20110203-1100,"org.eclipse.ui.edit.copy",1383009043947
executed,command,org.eclipse.ui,3.6.2.M20110203-1100,"org.eclipse.ui.edit.paste",1383009046278
executed,command,org.eclipse.ui,3.6.2.M20110203-1100,"org.eclipse.ui.file.save",1383009046700
deactivated,workbench,org.eclipse.ui.workbench,3.6.2.M20110210-1200,"",1383009048471
activated,workbench,org.eclipse.ui.workbench,3.6.2.M20110210-1200,"",1383009067697
deactivated,workbench,org.eclipse.ui.workbench,3.6.2.M20110210-1200,"",1383009069923
activated,workbench,org.eclipse.ui.workbench,3.6.2.M20110210-1200,"",1383009071673
deactivated,workbench,org.eclipse.ui.workbench,3.6.2.M20110210-1200,"",1383009088785
activated,workbench,org.eclipse.ui.workbench,3.6.2.M20110210-1200,"",1383009089816
deactivated,workbench,org.eclipse.ui.workbench,3.6.2.M20110210-1200,"",1383009091770
activated,workbench,org.eclipse.ui.workbench,3.6.2.M20110210-1200,"",1383009092152
deactivated,workbench,org.eclipse.ui.workbench,3.6.2.M20110210-1200,"",1383009092361
activated,workbench,org.eclipse.ui.workbench,3.6.2.M20110210-1200,"",1383009092724
deactivated,workbench,org.eclipse.ui.workbench,3.6.2.M20110210-1200,"",1383009093241
activated,workbench,org.eclipse.ui.workbench,3.6.2.M20110210-1200,"",1383009093620
executed,command,org.eclipse.jdt.ui,3.6.2.r362_v20110203,"org.eclipse.jdt.ui.edit.text.java.organize.imports",1383009106976
executed,command,org.eclipse.ui,3.6.2.M20110203-1100,"org.eclipse.ui.file.save",1383009107685
deactivated,workbench,org.eclipse.ui.workbench,3.6.2.M20110210-1200,"",1383009115208
activated,workbench,org.eclipse.ui.workbench,3.6.2.M20110210-1200,"",1383009167839
deactivated,workbench,org.eclipse.ui.workbench,3.6.2.M20110210-1200,"",1383009174289
activated,workbench,org.eclipse.ui.workbench,3.6.2.M20110210-1200,"",1383009175090
executed,command,org.eclipse.ui,3.6.2.M20110203-1100,"org.eclipse.ui.edit.undo",1383009237867
executed,command,org.eclipse.ui,3.6.2.M20110203-1100,"org.eclipse.ui.edit.undo",1383009238621
executed,command,org.eclipse.ui,3.6.2.M20110203-1100,"org.eclipse.ui.edit.undo",1383009239061
executed,command,org.eclipse.jdt.ui,3.6.2.r362_v20110203,"org.eclipse.jdt.ui.edit.text.java.rename.element",1383009241246
executed,command,org.eclipse.jdt.ui,3.6.2.r362_v20110203,"org.eclipse.jdt.ui.edit.text.java.rename.element",1383009271695
executed,command,org.eclipse.ui,3.6.2.M20110203-1100,"org.eclipse.ui.edit.delete",1383009279834
executed,command,org.eclipse.ui,3.6.2.M20110203-1100,"org.eclipse.ui.edit.delete",1383009280014
executed,command,org.eclipse.ui,3.6.2.M20110203-1100,"org.eclipse.ui.edit.delete",1383009280179
executed,command,org.eclipse.ui,3.6.2.M20110203-1100,"org.eclipse.ui.edit.delete",1383009280326
executed,command,org.eclipse.ui,3.6.2.M20110203-1100,"org.eclipse.ui.edit.delete",1383009280489
