what,kind,bundleId,bundleVersion,description,time
executed,command,org.eclipse.ui,3.6.2.M20110203-1100,"org.eclipse.ui.edit.copy",1383653848263
deactivated,workbench,org.eclipse.ui.workbench,3.6.2.M20110210-1200,"",1383653848637
executed,command,org.eclipse.ui,3.6.2.M20110203-1100,"org.eclipse.ui.edit.findReplace",1383653848677
executed,command,org.eclipse.ui,3.6.2.M20110203-1100,"org.eclipse.ui.edit.paste",1383653848790
activated,workbench,org.eclipse.ui.workbench,3.6.2.M20110210-1200,"",1383653851197
activated,view,org.eclipse.ui.navigator.resources,3.4.202.M20101124-0800,"org.eclipse.ui.navigator.ProjectExplorer",1383653890063
deactivated,workbench,org.eclipse.ui.workbench,3.6.2.M20110210-1200,"",1383653894302
activated,workbench,org.eclipse.ui.workbench,3.6.2.M20110210-1200,"",1383653901449
deactivated,workbench,org.eclipse.ui.workbench,3.6.2.M20110210-1200,"",1383653909478
activated,workbench,org.eclipse.ui.workbench,3.6.2.M20110210-1200,"",1383653919227
executed,command,org.eclipse.ui,3.6.2.M20110203-1100,"org.eclipse.ui.newWizard",1383653919251
deactivated,workbench,org.eclipse.ui.workbench,3.6.2.M20110210-1200,"",1383653923418
activated,workbench,org.eclipse.ui.workbench,3.6.2.M20110210-1200,"",1383653924565
deactivated,workbench,org.eclipse.ui.workbench,3.6.2.M20110210-1200,"",1383653924598
activated,workbench,org.eclipse.ui.workbench,3.6.2.M20110210-1200,"",1383653925698
executed,command,org.eclipse.wst.server.ui,1.1.207.v20110119,"org.eclipse.wst.server.launchShortcut.run",1383653925709
activated,editor,org.eclipse.ui.browser,3.3.1.r36_20101216,"org.eclipse.ui.browser.editor",1383653928276
executed,command,org.eclipse.ui,3.6.2.M20110203-1100,"org.eclipse.ui.edit.copy",1383653929125
activated,editor,org.eclipse.jdt.ui,3.6.2.r362_v20110203,"org.eclipse.jdt.ui.CompilationUnitEditor",1383653929739
closed,editor,org.eclipse.ui.browser,3.3.1.r36_20101216,"org.eclipse.ui.browser.editor",1383653929739
executed,command,org.eclipse.ui,3.6.2.M20110203-1100,"org.eclipse.ui.file.close",1383653929812
opened,editor,org.eclipse.ui.browser,3.3.1.r36_20101216,"org.eclipse.ui.browser.editor",1383653930401
activated,editor,org.eclipse.ui.browser,3.3.1.r36_20101216,"org.eclipse.ui.browser.editor",1383653930437
deactivated,workbench,org.eclipse.ui.workbench,3.6.2.M20110210-1200,"",1383653931205
activated,workbench,org.eclipse.ui.workbench,3.6.2.M20110210-1200,"",1383653985467
activated,view,org.eclipse.ui.console,3.5.0.v20100526,"org.eclipse.ui.console.ConsoleView",1383653987892
deactivated,workbench,org.eclipse.ui.workbench,3.6.2.M20110210-1200,"",1383653991022
activated,workbench,org.eclipse.ui.workbench,3.6.2.M20110210-1200,"",1383653992691
deactivated,workbench,org.eclipse.ui.workbench,3.6.2.M20110210-1200,"",1383653992926
activated,workbench,org.eclipse.ui.workbench,3.6.2.M20110210-1200,"",1383653998453
deactivated,workbench,org.eclipse.ui.workbench,3.6.2.M20110210-1200,"",1383654017348
activated,workbench,org.eclipse.ui.workbench,3.6.2.M20110210-1200,"",1383654379128
activated,editor,org.eclipse.jdt.ui,3.6.2.r362_v20110203,"org.eclipse.jdt.ui.CompilationUnitEditor",1383654383230
executed,command,org.eclipse.ui,3.6.2.M20110203-1100,"org.eclipse.ui.edit.copy",1383654399482
activated,view,org.eclipse.ui.console,3.5.0.v20100526,"org.eclipse.ui.console.ConsoleView",1383654428983
activated,editor,org.eclipse.jdt.ui,3.6.2.r362_v20110203,"org.eclipse.jdt.ui.CompilationUnitEditor",1383654439227
executed,command,org.eclipse.ui,3.6.2.M20110203-1100,"org.eclipse.ui.edit.copy",1383654568124
executed,command,org.eclipse.ui,3.6.2.M20110203-1100,"org.eclipse.ui.edit.copy",1383654568336
deactivated,workbench,org.eclipse.ui.workbench,3.6.2.M20110210-1200,"",1383654569119
activated,workbench,org.eclipse.ui.workbench,3.6.2.M20110210-1200,"",1383654664039
activated,view,org.eclipse.ui.console,3.5.0.v20100526,"org.eclipse.ui.console.ConsoleView",1383654664062
deactivated,workbench,org.eclipse.ui.workbench,3.6.2.M20110210-1200,"",1383654711821
activated,workbench,org.eclipse.ui.workbench,3.6.2.M20110210-1200,"",1383654724111
activated,editor,org.eclipse.jdt.ui,3.6.2.r362_v20110203,"org.eclipse.jdt.ui.CompilationUnitEditor",1383654727411
deactivated,workbench,org.eclipse.ui.workbench,3.6.2.M20110210-1200,"",1383654745670
activated,workbench,org.eclipse.ui.workbench,3.6.2.M20110210-1200,"",1383654760592
deactivated,workbench,org.eclipse.ui.workbench,3.6.2.M20110210-1200,"",1383654858299
activated,workbench,org.eclipse.ui.workbench,3.6.2.M20110210-1200,"",1383654866936
executed,command,org.eclipse.ui,3.6.2.M20110203-1100,"org.eclipse.ui.edit.text.contentAssist.proposals",1383655046458
executed,command,org.eclipse.ui,3.6.2.M20110203-1100,"org.eclipse.ui.edit.text.contentAssist.proposals",1383655049308
executed,command,org.eclipse.ui,3.6.2.M20110203-1100,"org.eclipse.ui.file.save",1383655061872
activated,view,org.eclipse.ui.console,3.5.0.v20100526,"org.eclipse.ui.console.ConsoleView",1383655065198
activated,editor,org.eclipse.jdt.ui,3.6.2.r362_v20110203,"org.eclipse.jdt.ui.CompilationUnitEditor",1383655067774
activated,view,org.eclipse.ui.navigator.resources,3.4.202.M20101124-0800,"org.eclipse.ui.navigator.ProjectExplorer",1383655095946
deactivated,workbench,org.eclipse.ui.workbench,3.6.2.M20110210-1200,"",1383655101314
activated,workbench,org.eclipse.ui.workbench,3.6.2.M20110210-1200,"",1383655107732
deactivated,workbench,org.eclipse.ui.workbench,3.6.2.M20110210-1200,"",1383655114825
activated,workbench,org.eclipse.ui.workbench,3.6.2.M20110210-1200,"",1383655120929
executed,command,org.eclipse.ui,3.6.2.M20110203-1100,"org.eclipse.ui.newWizard",1383655120938
deactivated,workbench,org.eclipse.ui.workbench,3.6.2.M20110210-1200,"",1383655125943
activated,workbench,org.eclipse.ui.workbench,3.6.2.M20110210-1200,"",1383655127077
deactivated,workbench,org.eclipse.ui.workbench,3.6.2.M20110210-1200,"",1383655127109
activated,workbench,org.eclipse.ui.workbench,3.6.2.M20110210-1200,"",1383655128393
executed,command,org.eclipse.wst.server.ui,1.1.207.v20110119,"org.eclipse.wst.server.launchShortcut.run",1383655128409
deactivated,workbench,org.eclipse.ui.workbench,3.6.2.M20110210-1200,"",1383655132197
opened,editor,org.eclipse.ui.browser,3.3.1.r36_20101216,"org.eclipse.ui.browser.editor",1383655133623
activated,workbench,org.eclipse.ui.workbench,3.6.2.M20110210-1200,"",1383655133692
activated,editor,org.eclipse.ui.browser,3.3.1.r36_20101216,"org.eclipse.ui.browser.editor",1383655133718
activated,view,org.eclipse.ui.console,3.5.0.v20100526,"org.eclipse.ui.console.ConsoleView",1383655289027
activated,editor,org.eclipse.jdt.ui,3.6.2.r362_v20110203,"org.eclipse.jdt.ui.CompilationUnitEditor",1383655294385
executed,command,org.eclipse.ui,3.6.2.M20110203-1100,"org.eclipse.ui.file.save",1383655300456
activated,view,org.eclipse.ui.console,3.5.0.v20100526,"org.eclipse.ui.console.ConsoleView",1383655303061
activated,editor,org.eclipse.jdt.ui,3.6.2.r362_v20110203,"org.eclipse.jdt.ui.CompilationUnitEditor",1383655387052
executed,command,org.eclipse.ui,3.6.2.M20110203-1100,"org.eclipse.ui.edit.copy",1383655432478
deactivated,workbench,org.eclipse.ui.workbench,3.6.2.M20110210-1200,"",1383655433681
activated,workbench,org.eclipse.ui.workbench,3.6.2.M20110210-1200,"",1383655447236
deactivated,workbench,org.eclipse.ui.workbench,3.6.2.M20110210-1200,"",1383655452115
executed,command,org.eclipse.ui,3.6.2.M20110203-1100,"org.eclipse.ui.edit.findReplace",1383655452181
activated,workbench,org.eclipse.ui.workbench,3.6.2.M20110210-1200,"",1383655453747
activated,view,org.eclipse.ui.navigator.resources,3.4.202.M20101124-0800,"org.eclipse.ui.navigator.ProjectExplorer",1383655456665
deactivated,workbench,org.eclipse.ui.workbench,3.6.2.M20110210-1200,"",1383655459829
activated,workbench,org.eclipse.ui.workbench,3.6.2.M20110210-1200,"",1383655466808
deactivated,workbench,org.eclipse.ui.workbench,3.6.2.M20110210-1200,"",1383655476204
activated,workbench,org.eclipse.ui.workbench,3.6.2.M20110210-1200,"",1383655486643
executed,command,org.eclipse.ui,3.6.2.M20110203-1100,"org.eclipse.ui.newWizard",1383655486665
activated,editor,org.eclipse.jdt.ui,3.6.2.r362_v20110203,"org.eclipse.jdt.ui.CompilationUnitEditor",1383655487507
activated,view,org.eclipse.ui.console,3.5.0.v20100526,"org.eclipse.ui.console.ConsoleView",1383655496258
activated,editor,org.eclipse.jdt.ui,3.6.2.r362_v20110203,"org.eclipse.jdt.ui.CompilationUnitEditor",1383655496819
executed,command,org.eclipse.jdt.ui,3.6.2.r362_v20110203,"org.eclipse.jdt.ui.edit.text.java.add.block.comment",1383655523112
executed,command,org.eclipse.ui,3.6.2.M20110203-1100,"org.eclipse.ui.file.save",1383655524175
executed,command,org.eclipse.ui,3.6.2.M20110203-1100,"org.eclipse.ui.file.save",1383655556278
activated,view,org.eclipse.ui.navigator.resources,3.4.202.M20101124-0800,"org.eclipse.ui.navigator.ProjectExplorer",1383655569721
deactivated,workbench,org.eclipse.ui.workbench,3.6.2.M20110210-1200,"",1383655574366
activated,workbench,org.eclipse.ui.workbench,3.6.2.M20110210-1200,"",1383655580162
deactivated,workbench,org.eclipse.ui.workbench,3.6.2.M20110210-1200,"",1383655580174
activated,workbench,org.eclipse.ui.workbench,3.6.2.M20110210-1200,"",1383655590008
deactivated,workbench,org.eclipse.ui.workbench,3.6.2.M20110210-1200,"",1383655601933
activated,workbench,org.eclipse.ui.workbench,3.6.2.M20110210-1200,"",1383655607135
executed,command,org.eclipse.ui,3.6.2.M20110203-1100,"org.eclipse.ui.newWizard",1383655607146
deactivated,workbench,org.eclipse.ui.workbench,3.6.2.M20110210-1200,"",1383655612659
activated,workbench,org.eclipse.ui.workbench,3.6.2.M20110210-1200,"",1383655613339
deactivated,workbench,org.eclipse.ui.workbench,3.6.2.M20110210-1200,"",1383655613370
activated,workbench,org.eclipse.ui.workbench,3.6.2.M20110210-1200,"",1383655614117
executed,command,org.eclipse.wst.server.ui,1.1.207.v20110119,"org.eclipse.wst.server.launchShortcut.run",1383655614130
opened,editor,org.eclipse.ui.browser,3.3.1.r36_20101216,"org.eclipse.ui.browser.editor",1383655618849
activated,editor,org.eclipse.ui.browser,3.3.1.r36_20101216,"org.eclipse.ui.browser.editor",1383655618947
executed,command,org.eclipse.ui,3.6.2.M20110203-1100,"org.eclipse.ui.edit.copy",1383655621378
executed,command,org.eclipse.ui,3.6.2.M20110203-1100,"org.eclipse.ui.edit.copy",1383655621610
deactivated,workbench,org.eclipse.ui.workbench,3.6.2.M20110210-1200,"",1383655623975
activated,workbench,org.eclipse.ui.workbench,3.6.2.M20110210-1200,"",1383655692150
activated,view,org.eclipse.ui.console,3.5.0.v20100526,"org.eclipse.ui.console.ConsoleView",1383655694945
deactivated,workbench,org.eclipse.ui.workbench,3.6.2.M20110210-1200,"",1383655709990
activated,workbench,org.eclipse.ui.workbench,3.6.2.M20110210-1200,"",1383655721503
activated,editor,org.eclipse.jdt.ui,3.6.2.r362_v20110203,"org.eclipse.jdt.ui.CompilationUnitEditor",1383655722683
executed,command,org.eclipse.ui,3.6.2.M20110203-1100,"org.eclipse.ui.file.save",1383655743239
activated,view,org.eclipse.ui.console,3.5.0.v20100526,"org.eclipse.ui.console.ConsoleView",1383655748711
activated,editor,org.eclipse.jdt.ui,3.6.2.r362_v20110203,"org.eclipse.jdt.ui.CompilationUnitEditor",1383655754159
activated,view,org.eclipse.ui.navigator.resources,3.4.202.M20101124-0800,"org.eclipse.ui.navigator.ProjectExplorer",1383655755425
deactivated,workbench,org.eclipse.ui.workbench,3.6.2.M20110210-1200,"",1383655758860
activated,workbench,org.eclipse.ui.workbench,3.6.2.M20110210-1200,"",1383655764843
deactivated,workbench,org.eclipse.ui.workbench,3.6.2.M20110210-1200,"",1383655771210
activated,workbench,org.eclipse.ui.workbench,3.6.2.M20110210-1200,"",1383655776494
executed,command,org.eclipse.ui,3.6.2.M20110203-1100,"org.eclipse.ui.newWizard",1383655776507
deactivated,workbench,org.eclipse.ui.workbench,3.6.2.M20110210-1200,"",1383655780182
activated,workbench,org.eclipse.ui.workbench,3.6.2.M20110210-1200,"",1383655780994
deactivated,workbench,org.eclipse.ui.workbench,3.6.2.M20110210-1200,"",1383655781027
activated,workbench,org.eclipse.ui.workbench,3.6.2.M20110210-1200,"",1383655781782
executed,command,org.eclipse.wst.server.ui,1.1.207.v20110119,"org.eclipse.wst.server.launchShortcut.run",1383655781797
opened,editor,org.eclipse.ui.browser,3.3.1.r36_20101216,"org.eclipse.ui.browser.editor",1383655786233
activated,editor,org.eclipse.ui.browser,3.3.1.r36_20101216,"org.eclipse.ui.browser.editor",1383655786267
executed,command,org.eclipse.ui,3.6.2.M20110203-1100,"org.eclipse.ui.edit.copy",1383655788704
deactivated,workbench,org.eclipse.ui.workbench,3.6.2.M20110210-1200,"",1383655789074
activated,workbench,org.eclipse.ui.workbench,3.6.2.M20110210-1200,"",1383655794007
executed,command,org.eclipse.ui,3.6.2.M20110203-1100,"org.eclipse.ui.edit.copy",1383655794982
deactivated,workbench,org.eclipse.ui.workbench,3.6.2.M20110210-1200,"",1383655795301
activated,workbench,org.eclipse.ui.workbench,3.6.2.M20110210-1200,"",1383656069300
activated,view,org.eclipse.ui.navigator.resources,3.4.202.M20101124-0800,"org.eclipse.ui.navigator.ProjectExplorer",1383656074779
closed,editor,org.eclipse.jdt.ui,3.6.2.r362_v20110203,"org.eclipse.jdt.ui.CompilationUnitEditor",1383656074779
closed,editor,org.eclipse.jdt.ui,3.6.2.r362_v20110203,"org.eclipse.jdt.ui.CompilationUnitEditor",1383656075124
closed,editor,org.eclipse.ui.browser,3.3.1.r36_20101216,"org.eclipse.ui.browser.editor",1383656075269
closed,editor,org.eclipse.jst.jsp.ui,1.1.503.v201101262228,"org.eclipse.jst.jsp.core.jspsource.source",1383656075394
closed,editor,org.eclipse.ui.browser,3.3.1.r36_20101216,"org.eclipse.ui.browser.editor",1383656075402
closed,editor,org.eclipse.ui.browser,3.3.1.r36_20101216,"org.eclipse.ui.browser.editor",1383656075470
closed,editor,org.eclipse.ui.browser,3.3.1.r36_20101216,"org.eclipse.ui.browser.editor",1383656075534
closed,editor,org.eclipse.ui.browser,3.3.1.r36_20101216,"org.eclipse.ui.browser.editor",1383656075600
closed,editor,org.eclipse.ui.browser,3.3.1.r36_20101216,"org.eclipse.ui.browser.editor",1383656075691
opened,editor,org.eclipse.jdt.ui,3.6.2.r362_v20110203,"org.eclipse.jdt.ui.CompilationUnitEditor",1383656082383
activated,editor,org.eclipse.jdt.ui,3.6.2.r362_v20110203,"org.eclipse.jdt.ui.CompilationUnitEditor",1383656082524
executed,command,org.eclipse.ui,3.6.2.M20110203-1100,"org.eclipse.ui.edit.delete",1383656134691
executed,command,org.eclipse.ui,3.6.2.M20110203-1100,"org.eclipse.ui.edit.undo",1383656170012
executed,command,org.eclipse.ui,3.6.2.M20110203-1100,"org.eclipse.ui.file.save",1383656233955
activated,view,org.eclipse.ui.console,3.5.0.v20100526,"org.eclipse.ui.console.ConsoleView",1383656237442
deactivated,workbench,org.eclipse.ui.workbench,3.6.2.M20110210-1200,"",1383656260820
activated,workbench,org.eclipse.ui.workbench,3.6.2.M20110210-1200,"",1383656277366
activated,editor,org.eclipse.jdt.ui,3.6.2.r362_v20110203,"org.eclipse.jdt.ui.CompilationUnitEditor",1383656279493
activated,view,org.eclipse.ui.navigator.resources,3.4.202.M20101124-0800,"org.eclipse.ui.navigator.ProjectExplorer",1383656280941
deactivated,workbench,org.eclipse.ui.workbench,3.6.2.M20110210-1200,"",1383656286403
activated,workbench,org.eclipse.ui.workbench,3.6.2.M20110210-1200,"",1383656289823
activated,editor,org.eclipse.jdt.ui,3.6.2.r362_v20110203,"org.eclipse.jdt.ui.CompilationUnitEditor",1383656291917
executed,command,org.eclipse.ui,3.6.2.M20110203-1100,"org.eclipse.ui.edit.copy",1383656337856
executed,command,org.eclipse.ui,3.6.2.M20110203-1100,"org.eclipse.ui.edit.paste",1383656343084
executed,command,org.eclipse.ui,3.6.2.M20110203-1100,"org.eclipse.ui.edit.undo",1383656344352
executed,command,org.eclipse.ui,3.6.2.M20110203-1100,"org.eclipse.ui.edit.paste",1383656349356
executed,command,org.eclipse.ui,3.6.2.M20110203-1100,"org.eclipse.ui.file.save",1383656354502
executed,command,org.eclipse.ui,3.6.2.M20110203-1100,"org.eclipse.ui.file.save",1383656358460
deactivated,workbench,org.eclipse.ui.workbench,3.6.2.M20110210-1200,"",1383656367280
activated,workbench,org.eclipse.ui.workbench,3.6.2.M20110210-1200,"",1383656545505
deactivated,workbench,org.eclipse.ui.workbench,3.6.2.M20110210-1200,"",1383656581085
activated,workbench,org.eclipse.ui.workbench,3.6.2.M20110210-1200,"",1383656586306
deactivated,workbench,org.eclipse.ui.workbench,3.6.2.M20110210-1200,"",1383656587685
activated,workbench,org.eclipse.ui.workbench,3.6.2.M20110210-1200,"",1383657137189
executed,command,org.eclipse.ui,3.6.2.M20110203-1100,"org.eclipse.ui.edit.copy",1383657167453
executed,command,org.eclipse.ui,3.6.2.M20110203-1100,"org.eclipse.ui.edit.paste",1383657172696
executed,command,org.eclipse.ui,3.6.2.M20110203-1100,"org.eclipse.ui.file.save",1383657173301
activated,view,org.eclipse.ui.navigator.resources,3.4.202.M20101124-0800,"org.eclipse.ui.navigator.ProjectExplorer",1383657219568
deactivated,workbench,org.eclipse.ui.workbench,3.6.2.M20110210-1200,"",1383657222493
activated,workbench,org.eclipse.ui.workbench,3.6.2.M20110210-1200,"",1383657228800
deactivated,workbench,org.eclipse.ui.workbench,3.6.2.M20110210-1200,"",1383657236109
activated,workbench,org.eclipse.ui.workbench,3.6.2.M20110210-1200,"",1383657242252
executed,command,org.eclipse.ui,3.6.2.M20110203-1100,"org.eclipse.ui.newWizard",1383657242261
deactivated,workbench,org.eclipse.ui.workbench,3.6.2.M20110210-1200,"",1383657247536
activated,workbench,org.eclipse.ui.workbench,3.6.2.M20110210-1200,"",1383657249006
deactivated,workbench,org.eclipse.ui.workbench,3.6.2.M20110210-1200,"",1383657249036
activated,workbench,org.eclipse.ui.workbench,3.6.2.M20110210-1200,"",1383657250006
executed,command,org.eclipse.wst.server.ui,1.1.207.v20110119,"org.eclipse.wst.server.launchShortcut.run",1383657250013
opened,editor,org.eclipse.ui.browser,3.3.1.r36_20101216,"org.eclipse.ui.browser.editor",1383657254369
activated,editor,org.eclipse.ui.browser,3.3.1.r36_20101216,"org.eclipse.ui.browser.editor",1383657254406
executed,command,org.eclipse.ui,3.6.2.M20110203-1100,"org.eclipse.ui.edit.copy",1383657255455
deactivated,workbench,org.eclipse.ui.workbench,3.6.2.M20110210-1200,"",1383657256693
activated,workbench,org.eclipse.ui.workbench,3.6.2.M20110210-1200,"",1383657385115
activated,view,org.eclipse.ui.console,3.5.0.v20100526,"org.eclipse.ui.console.ConsoleView",1383657386870
deactivated,workbench,org.eclipse.ui.workbench,3.6.2.M20110210-1200,"",1383657422792
activated,workbench,org.eclipse.ui.workbench,3.6.2.M20110210-1200,"",1383657423959
deactivated,workbench,org.eclipse.ui.workbench,3.6.2.M20110210-1200,"",1383657424191
activated,workbench,org.eclipse.ui.workbench,3.6.2.M20110210-1200,"",1383657426427
activated,editor,org.eclipse.jdt.ui,3.6.2.r362_v20110203,"org.eclipse.jdt.ui.CompilationUnitEditor",1383657428945
executed,command,org.eclipse.ui,3.6.2.M20110203-1100,"org.eclipse.ui.file.save",1383657444296
activated,view,org.eclipse.ui.navigator.resources,3.4.202.M20101124-0800,"org.eclipse.ui.navigator.ProjectExplorer",1383657447878
deactivated,workbench,org.eclipse.ui.workbench,3.6.2.M20110210-1200,"",1383657453413
activated,workbench,org.eclipse.ui.workbench,3.6.2.M20110210-1200,"",1383657460841
deactivated,workbench,org.eclipse.ui.workbench,3.6.2.M20110210-1200,"",1383657470456
activated,workbench,org.eclipse.ui.workbench,3.6.2.M20110210-1200,"",1383657484302
executed,command,org.eclipse.ui,3.6.2.M20110203-1100,"org.eclipse.ui.newWizard",1383657484323
activated,editor,org.eclipse.ui.browser,3.3.1.r36_20101216,"org.eclipse.ui.browser.editor",1383657486383
executed,command,org.eclipse.ui,3.6.2.M20110203-1100,"org.eclipse.ui.edit.copy",1383657487104
executed,command,org.eclipse.ui,3.6.2.M20110203-1100,"org.eclipse.ui.edit.copy",1383657487370
executed,command,org.eclipse.ui,3.6.2.M20110203-1100,"org.eclipse.ui.edit.copy",1383657487584
activated,view,org.eclipse.ui.navigator.resources,3.4.202.M20101124-0800,"org.eclipse.ui.navigator.ProjectExplorer",1383657488535
deactivated,workbench,org.eclipse.ui.workbench,3.6.2.M20110210-1200,"",1383657491159
activated,workbench,org.eclipse.ui.workbench,3.6.2.M20110210-1200,"",1383657492469
deactivated,workbench,org.eclipse.ui.workbench,3.6.2.M20110210-1200,"",1383657492499
activated,workbench,org.eclipse.ui.workbench,3.6.2.M20110210-1200,"",1383657494678
executed,command,org.eclipse.wst.server.ui,1.1.207.v20110119,"org.eclipse.wst.server.launchShortcut.run",1383657494689
activated,editor,org.eclipse.ui.browser,3.3.1.r36_20101216,"org.eclipse.ui.browser.editor",1383657496825
executed,command,org.eclipse.ui,3.6.2.M20110203-1100,"org.eclipse.ui.edit.copy",1383657498090
executed,command,org.eclipse.ui,3.6.2.M20110203-1100,"org.eclipse.ui.edit.copy",1383657498332
deactivated,workbench,org.eclipse.ui.workbench,3.6.2.M20110210-1200,"",1383657498822
opened,editor,org.eclipse.ui.browser,3.3.1.r36_20101216,"org.eclipse.ui.browser.editor",1383657499060
activated,workbench,org.eclipse.ui.workbench,3.6.2.M20110210-1200,"",1383657499078
activated,editor,org.eclipse.ui.browser,3.3.1.r36_20101216,"org.eclipse.ui.browser.editor",1383657499094
activated,workbench,org.eclipse.ui.workbench,3.6.2.M20110210-1200,"",1383675178110
activated,view,org.eclipse.ui.navigator.resources,3.4.202.M20101124-0800,"org.eclipse.ui.navigator.ProjectExplorer",1383675182712
closed,editor,org.eclipse.jdt.ui,3.6.2.r362_v20110203,"org.eclipse.jdt.ui.CompilationUnitEditor",1383675182712
closed,editor,org.eclipse.ui.browser,3.3.1.r36_20101216,"org.eclipse.ui.browser.editor",1383675182812
closed,editor,org.eclipse.ui.browser,3.3.1.r36_20101216,"org.eclipse.ui.browser.editor",1383675182932
deactivated,workbench,org.eclipse.ui.workbench,3.6.2.M20110210-1200,"",1383675184266
activated,workbench,org.eclipse.ui.workbench,3.6.2.M20110210-1200,"",1383675195287
deactivated,workbench,org.eclipse.ui.workbench,3.6.2.M20110210-1200,"",1383675195716
activated,workbench,org.eclipse.ui.workbench,3.6.2.M20110210-1200,"",1383675229319
activated,view,org.eclipse.ui.console,3.5.0.v20100526,"org.eclipse.ui.console.ConsoleView",1383675234980
activated,view,org.eclipse.ui.navigator.resources,3.4.202.M20101124-0800,"org.eclipse.ui.navigator.ProjectExplorer",1383675235104
closed,view,org.eclipse.ui.console,3.5.0.v20100526,"org.eclipse.ui.console.ConsoleView",1383675235120
deactivated,workbench,org.eclipse.ui.workbench,3.6.2.M20110210-1200,"",1383675235794
activated,workbench,org.eclipse.ui.workbench,3.6.2.M20110210-1200,"",1383675238391
opened,editor,org.eclipse.jdt.ui,3.6.2.r362_v20110203,"org.eclipse.jdt.ui.CompilationUnitEditor",1383675243082
activated,editor,org.eclipse.jdt.ui,3.6.2.r362_v20110203,"org.eclipse.jdt.ui.CompilationUnitEditor",1383675243131
executed,command,org.eclipse.ui,3.6.2.M20110203-1100,"org.eclipse.ui.edit.selectAll",1383675360013
executed,command,org.eclipse.ui,3.6.2.M20110203-1100,"org.eclipse.ui.edit.copy",1383675360712
executed,command,org.eclipse.ui,3.6.2.M20110203-1100,"org.eclipse.ui.edit.copy",1383675361195
deactivated,workbench,org.eclipse.ui.workbench,3.6.2.M20110210-1200,"",1383675361825
activated,workbench,org.eclipse.ui.workbench,3.6.2.M20110210-1200,"",1383675372020
deactivated,workbench,org.eclipse.ui.workbench,3.6.2.M20110210-1200,"",1383675372024
activated,workbench,org.eclipse.ui.workbench,3.6.2.M20110210-1200,"",1383675382106
executed,command,org.eclipse.ui,3.6.2.M20110203-1100,"org.eclipse.ui.edit.copy",1383675439778
executed,command,org.eclipse.ui,3.6.2.M20110203-1100,"org.eclipse.ui.edit.paste",1383675440925
executed,command,org.eclipse.ui,3.6.2.M20110203-1100,"org.eclipse.ui.file.save",1383675464823
opened,view,org.eclipse.ui.console,3.5.0.v20100526,"org.eclipse.ui.console.ConsoleView",1383675469991
activated,view,org.eclipse.ui.console,3.5.0.v20100526,"org.eclipse.ui.console.ConsoleView",1383675470061
activated,editor,org.eclipse.jdt.ui,3.6.2.r362_v20110203,"org.eclipse.jdt.ui.CompilationUnitEditor",1383675470830
executed,command,org.eclipse.ui,3.6.2.M20110203-1100,"org.eclipse.ui.edit.copy",1383675471437
executed,command,org.eclipse.ui,3.6.2.M20110203-1100,"org.eclipse.ui.file.save",1383675504483
executed,command,org.eclipse.ui,3.6.2.M20110203-1100,"org.eclipse.ui.file.save",1383675519091
executed,command,org.eclipse.ui,3.6.2.M20110203-1100,"org.eclipse.ui.file.save",1383675567475
executed,command,org.eclipse.ui,3.6.2.M20110203-1100,"org.eclipse.ui.edit.undo",1383675571098
executed,command,org.eclipse.ui,3.6.2.M20110203-1100,"org.eclipse.ui.edit.undo",1383675571481
executed,command,org.eclipse.ui,3.6.2.M20110203-1100,"org.eclipse.ui.edit.undo",1383675571797
executed,command,org.eclipse.ui,3.6.2.M20110203-1100,"org.eclipse.ui.edit.undo",1383675572119
executed,command,org.eclipse.ui,3.6.2.M20110203-1100,"org.eclipse.ui.edit.copy",1383675577732
executed,command,org.eclipse.ui,3.6.2.M20110203-1100,"org.eclipse.ui.edit.undo",1383675578162
executed,command,org.eclipse.ui,3.6.2.M20110203-1100,"org.eclipse.ui.edit.undo",1383675578583
executed,command,org.eclipse.ui,3.6.2.M20110203-1100,"org.eclipse.ui.edit.undo",1383675578853
executed,command,org.eclipse.ui,3.6.2.M20110203-1100,"org.eclipse.ui.edit.undo",1383675579244
executed,command,org.eclipse.ui,3.6.2.M20110203-1100,"org.eclipse.ui.edit.undo",1383675579601
executed,command,org.eclipse.ui,3.6.2.M20110203-1100,"org.eclipse.ui.edit.undo",1383675579911
executed,command,org.eclipse.ui,3.6.2.M20110203-1100,"org.eclipse.ui.edit.undo",1383675580184
executed,command,org.eclipse.ui,3.6.2.M20110203-1100,"org.eclipse.ui.edit.undo",1383675580579
executed,command,org.eclipse.ui,3.6.2.M20110203-1100,"org.eclipse.ui.edit.undo",1383675581139
executed,command,org.eclipse.ui,3.6.2.M20110203-1100,"org.eclipse.ui.edit.undo",1383675581420
executed,command,org.eclipse.ui,3.6.2.M20110203-1100,"org.eclipse.ui.edit.undo",1383675582172
executed,command,org.eclipse.ui,3.6.2.M20110203-1100,"org.eclipse.ui.edit.undo",1383675582608
executed,command,org.eclipse.ui,3.6.2.M20110203-1100,"org.eclipse.ui.edit.undo",1383675582623
executed,command,org.eclipse.ui,3.6.2.M20110203-1100,"org.eclipse.ui.edit.undo",1383675582642
executed,command,org.eclipse.ui,3.6.2.M20110203-1100,"org.eclipse.ui.edit.undo",1383675582667
executed,command,org.eclipse.ui,3.6.2.M20110203-1100,"org.eclipse.ui.edit.undo",1383675582690
executed,command,org.eclipse.ui,3.6.2.M20110203-1100,"org.eclipse.ui.file.save",1383675601167
