what,kind,bundleId,bundleVersion,description,time
activated,workbench,org.eclipse.ui.workbench,3.6.2.M20110210-1200,"",1383545046155
activated,view,org.eclipse.ui.navigator.resources,3.4.202.M20101124-0800,"org.eclipse.ui.navigator.ProjectExplorer",1383545049006
executed,command,org.eclipse.ui,3.6.2.M20110203-1100,"org.eclipse.ui.file.refresh",1383545049810
deactivated,workbench,org.eclipse.ui.workbench,3.6.2.M20110210-1200,"",1383545050605
activated,workbench,org.eclipse.ui.workbench,3.6.2.M20110210-1200,"",1383545057231
activated,editor,org.eclipse.jst.jsp.ui,1.1.503.v201101262228,"org.eclipse.jst.jsp.core.jspsource.source",1383545058825
deactivated,workbench,org.eclipse.ui.workbench,3.6.2.M20110210-1200,"",1383545059570
activated,workbench,org.eclipse.ui.workbench,3.6.2.M20110210-1200,"",1383545061119
executed,command,org.eclipse.ui,3.6.2.M20110203-1100,"org.eclipse.ui.file.save",1383545064731
deactivated,workbench,org.eclipse.ui.workbench,3.6.2.M20110210-1200,"",1383545064962
activated,workbench,org.eclipse.ui.workbench,3.6.2.M20110210-1200,"",1383545068671
executed,command,org.eclipse.ui,3.6.2.M20110203-1100,"org.eclipse.ui.file.save",1383545071359
deactivated,workbench,org.eclipse.ui.workbench,3.6.2.M20110210-1200,"",1383545071606
activated,workbench,org.eclipse.ui.workbench,3.6.2.M20110210-1200,"",1383545089652
deactivated,workbench,org.eclipse.ui.workbench,3.6.2.M20110210-1200,"",1383545093185
activated,workbench,org.eclipse.ui.workbench,3.6.2.M20110210-1200,"",1383545097915
executed,command,org.eclipse.ui,3.6.2.M20110203-1100,"org.eclipse.ui.file.save",1383545107320
deactivated,workbench,org.eclipse.ui.workbench,3.6.2.M20110210-1200,"",1383545107696
activated,workbench,org.eclipse.ui.workbench,3.6.2.M20110210-1200,"",1383545110967
executed,command,org.eclipse.ui,3.6.2.M20110203-1100,"org.eclipse.ui.file.save",1383545113404
deactivated,workbench,org.eclipse.ui.workbench,3.6.2.M20110210-1200,"",1383545113634
activated,workbench,org.eclipse.ui.workbench,3.6.2.M20110210-1200,"",1383545116136
executed,command,org.eclipse.ui,3.6.2.M20110203-1100,"org.eclipse.ui.file.save",1383545118585
deactivated,workbench,org.eclipse.ui.workbench,3.6.2.M20110210-1200,"",1383545118838
activated,workbench,org.eclipse.ui.workbench,3.6.2.M20110210-1200,"",1383545121627
deactivated,workbench,org.eclipse.ui.workbench,3.6.2.M20110210-1200,"",1383545123129
activated,workbench,org.eclipse.ui.workbench,3.6.2.M20110210-1200,"",1383545126163
executed,command,org.eclipse.ui,3.6.2.M20110203-1100,"org.eclipse.ui.file.save",1383545128148
deactivated,workbench,org.eclipse.ui.workbench,3.6.2.M20110210-1200,"",1383545128438
activated,workbench,org.eclipse.ui.workbench,3.6.2.M20110210-1200,"",1383545139753
deactivated,workbench,org.eclipse.ui.workbench,3.6.2.M20110210-1200,"",1383545140388
activated,workbench,org.eclipse.ui.workbench,3.6.2.M20110210-1200,"",1383545143098
executed,command,org.eclipse.ui,3.6.2.M20110203-1100,"org.eclipse.ui.file.save",1383545155847
deactivated,workbench,org.eclipse.ui.workbench,3.6.2.M20110210-1200,"",1383545156180
activated,workbench,org.eclipse.ui.workbench,3.6.2.M20110210-1200,"",1383545162186
deactivated,workbench,org.eclipse.ui.workbench,3.6.2.M20110210-1200,"",1383545165510
activated,workbench,org.eclipse.ui.workbench,3.6.2.M20110210-1200,"",1383545166876
executed,command,org.eclipse.ui,3.6.2.M20110203-1100,"org.eclipse.ui.file.save",1383545170026
deactivated,workbench,org.eclipse.ui.workbench,3.6.2.M20110210-1200,"",1383545170327
activated,workbench,org.eclipse.ui.workbench,3.6.2.M20110210-1200,"",1383545172901
executed,command,org.eclipse.ui,3.6.2.M20110203-1100,"org.eclipse.ui.file.save",1383545174936
deactivated,workbench,org.eclipse.ui.workbench,3.6.2.M20110210-1200,"",1383545175254
activated,workbench,org.eclipse.ui.workbench,3.6.2.M20110210-1200,"",1383545178057
executed,command,org.eclipse.ui,3.6.2.M20110203-1100,"org.eclipse.ui.file.save",1383545179250
deactivated,workbench,org.eclipse.ui.workbench,3.6.2.M20110210-1200,"",1383545179593
activated,workbench,org.eclipse.ui.workbench,3.6.2.M20110210-1200,"",1383545181331
deactivated,workbench,org.eclipse.ui.workbench,3.6.2.M20110210-1200,"",1383545185502
activated,workbench,org.eclipse.ui.workbench,3.6.2.M20110210-1200,"",1383545188890
activated,view,org.eclipse.ui.console,3.5.0.v20100526,"org.eclipse.ui.console.ConsoleView",1383545188900
activated,editor,org.eclipse.jst.jsp.ui,1.1.503.v201101262228,"org.eclipse.jst.jsp.core.jspsource.source",1383546749480
executed,command,org.eclipse.ui,3.6.2.M20110203-1100,"org.eclipse.ui.edit.cut",1383546774790
executed,command,org.eclipse.ui,3.6.2.M20110203-1100,"org.eclipse.ui.edit.paste",1383546782961
executed,command,org.eclipse.ui,3.6.2.M20110203-1100,"org.eclipse.ui.file.save",1383546783577
deactivated,workbench,org.eclipse.ui.workbench,3.6.2.M20110210-1200,"",1383546784139
activated,workbench,org.eclipse.ui.workbench,3.6.2.M20110210-1200,"",1383546784749
deactivated,workbench,org.eclipse.ui.workbench,3.6.2.M20110210-1200,"",1383546802456
activated,workbench,org.eclipse.ui.workbench,3.6.2.M20110210-1200,"",1383546817511
activated,view,org.eclipse.ui.console,3.5.0.v20100526,"org.eclipse.ui.console.ConsoleView",1383546817528
executed,command,org.eclipse.debug.ui,3.6.3.v20101201_r362,"org.eclipse.debug.ui.commands.eof",1383546837425
activated,editor,org.eclipse.jst.jsp.ui,1.1.503.v201101262228,"org.eclipse.jst.jsp.core.jspsource.source",1383546838651
executed,command,org.eclipse.ui,3.6.2.M20110203-1100,"org.eclipse.ui.edit.undo",1383546839448
executed,command,org.eclipse.ui,3.6.2.M20110203-1100,"org.eclipse.ui.edit.undo",1383546840451
executed,command,org.eclipse.ui,3.6.2.M20110203-1100,"org.eclipse.ui.edit.undo",1383546841127
executed,command,org.eclipse.ui,3.6.2.M20110203-1100,"org.eclipse.ui.edit.undo",1383546841954
executed,command,org.eclipse.ui,3.6.2.M20110203-1100,"org.eclipse.ui.file.save",1383546844118
deactivated,workbench,org.eclipse.ui.workbench,3.6.2.M20110210-1200,"",1383546851417
activated,workbench,org.eclipse.ui.workbench,3.6.2.M20110210-1200,"",1383546858416
activated,view,org.eclipse.ui.navigator.resources,3.4.202.M20101124-0800,"org.eclipse.ui.navigator.ProjectExplorer",1383546872585
activated,editor,org.eclipse.jst.jsp.ui,1.1.503.v201101262228,"org.eclipse.jst.jsp.core.jspsource.source",1383546874930
executed,command,org.eclipse.ui,3.6.2.M20110203-1100,"org.eclipse.ui.edit.copy",1383546884355
executed,command,org.eclipse.ui,3.6.2.M20110203-1100,"org.eclipse.ui.edit.copy",1383546884572
activated,editor,org.eclipse.jst.jsp.ui,1.1.503.v201101262228,"org.eclipse.jst.jsp.core.jspsource.source",1383546886999
executed,command,org.eclipse.ui,3.6.2.M20110203-1100,"org.eclipse.ui.edit.paste",1383546891203
executed,command,org.eclipse.ui,3.6.2.M20110203-1100,"org.eclipse.ui.file.save",1383546895979
deactivated,workbench,org.eclipse.ui.workbench,3.6.2.M20110210-1200,"",1383546896796
activated,workbench,org.eclipse.ui.workbench,3.6.2.M20110210-1200,"",1383546902135
activated,view,org.eclipse.ui.console,3.5.0.v20100526,"org.eclipse.ui.console.ConsoleView",1383546902153
deactivated,workbench,org.eclipse.ui.workbench,3.6.2.M20110210-1200,"",1383546977682
activated,workbench,org.eclipse.ui.workbench,3.6.2.M20110210-1200,"",1383547080206
started,bundle,org.eclipse.wst.xsl.debug.ui,1.0.101.v201102111830,"org.eclipse.wst.xsl.debug.ui",1383547081165
activated,editor,org.eclipse.jst.jsp.ui,1.1.503.v201101262228,"org.eclipse.jst.jsp.core.jspsource.source",1383547082012
deactivated,workbench,org.eclipse.ui.workbench,3.6.2.M20110210-1200,"",1383547083439
activated,workbench,org.eclipse.ui.workbench,3.6.2.M20110210-1200,"",1383547141201
deactivated,workbench,org.eclipse.ui.workbench,3.6.2.M20110210-1200,"",1383547148293
activated,workbench,org.eclipse.ui.workbench,3.6.2.M20110210-1200,"",1383547152432
executed,command,org.eclipse.ui,3.6.2.M20110203-1100,"org.eclipse.ui.edit.copy",1383547179913
executed,command,org.eclipse.ui,3.6.2.M20110203-1100,"org.eclipse.ui.edit.copy",1383547180159
deactivated,workbench,org.eclipse.ui.workbench,3.6.2.M20110210-1200,"",1383547180671
activated,workbench,org.eclipse.ui.workbench,3.6.2.M20110210-1200,"",1383547213572
executed,command,org.eclipse.ui,3.6.2.M20110203-1100,"org.eclipse.ui.edit.copy",1383547215353
executed,command,org.eclipse.ui,3.6.2.M20110203-1100,"org.eclipse.ui.edit.paste",1383547216877
executed,command,org.eclipse.ui,3.6.2.M20110203-1100,"org.eclipse.ui.file.save",1383547218390
executed,command,org.eclipse.ui,3.6.2.M20110203-1100,"org.eclipse.ui.file.save",1383547228128
deactivated,workbench,org.eclipse.ui.workbench,3.6.2.M20110210-1200,"",1383547228438
activated,workbench,org.eclipse.ui.workbench,3.6.2.M20110210-1200,"",1383547233373
deactivated,workbench,org.eclipse.ui.workbench,3.6.2.M20110210-1200,"",1383547237182
activated,workbench,org.eclipse.ui.workbench,3.6.2.M20110210-1200,"",1383547255392
deactivated,workbench,org.eclipse.ui.workbench,3.6.2.M20110210-1200,"",1383547257039
activated,workbench,org.eclipse.ui.workbench,3.6.2.M20110210-1200,"",1383547257519
deactivated,workbench,org.eclipse.ui.workbench,3.6.2.M20110210-1200,"",1383547268399
activated,workbench,org.eclipse.ui.workbench,3.6.2.M20110210-1200,"",1383547269858
executed,command,org.eclipse.ui,3.6.2.M20110203-1100,"org.eclipse.ui.edit.copy",1383547283335
executed,command,org.eclipse.ui,3.6.2.M20110203-1100,"org.eclipse.ui.file.save",1383547289817
deactivated,workbench,org.eclipse.ui.workbench,3.6.2.M20110210-1200,"",1383547290104
activated,workbench,org.eclipse.ui.workbench,3.6.2.M20110210-1200,"",1383547294980
executed,command,org.eclipse.ui,3.6.2.M20110203-1100,"org.eclipse.ui.edit.cut",1383547300913
executed,command,org.eclipse.ui,3.6.2.M20110203-1100,"org.eclipse.ui.file.save",1383547301267
deactivated,workbench,org.eclipse.ui.workbench,3.6.2.M20110210-1200,"",1383547307368
activated,workbench,org.eclipse.ui.workbench,3.6.2.M20110210-1200,"",1383547310919
deactivated,workbench,org.eclipse.ui.workbench,3.6.2.M20110210-1200,"",1383547317548
activated,workbench,org.eclipse.ui.workbench,3.6.2.M20110210-1200,"",1383547319464
executed,command,org.eclipse.ui,3.6.2.M20110203-1100,"org.eclipse.ui.edit.delete",1383547344023
executed,command,org.eclipse.ui,3.6.2.M20110203-1100,"org.eclipse.ui.edit.delete",1383547344203
executed,command,org.eclipse.ui,3.6.2.M20110203-1100,"org.eclipse.ui.edit.copy",1383547348319
executed,command,org.eclipse.ui,3.6.2.M20110203-1100,"org.eclipse.ui.edit.paste",1383547351402
executed,command,org.eclipse.ui,3.6.2.M20110203-1100,"org.eclipse.ui.file.save",1383547354716
started,bundle,org.eclipse.jst.jsf.facelet.core,1.0.2.v201101042130,"org.eclipse.jst.jsf.facelet.core",1383547367422
started,bundle,org.eclipse.wst.internet.cache,1.0.400.v201004280700,"org.eclipse.wst.internet.cache",1383547367560
executed,command,org.eclipse.ui,3.6.2.M20110203-1100,"org.eclipse.ui.edit.copy",1383547386060
executed,command,org.eclipse.ui,3.6.2.M20110203-1100,"org.eclipse.ui.edit.copy",1383547392395
executed,command,org.eclipse.ui,3.6.2.M20110203-1100,"org.eclipse.ui.edit.paste",1383547394410
executed,command,org.eclipse.ui,3.6.2.M20110203-1100,"org.eclipse.ui.edit.delete",1383547397236
executed,command,org.eclipse.ui,3.6.2.M20110203-1100,"org.eclipse.ui.file.save",1383547397720
executed,command,org.eclipse.ui,3.6.2.M20110203-1100,"org.eclipse.ui.file.save",1383547411202
deactivated,workbench,org.eclipse.ui.workbench,3.6.2.M20110210-1200,"",1383547413479
activated,workbench,org.eclipse.ui.workbench,3.6.2.M20110210-1200,"",1383547418688
executed,command,org.eclipse.ui,3.6.2.M20110203-1100,"org.eclipse.ui.edit.copy",1383547421579
executed,command,org.eclipse.ui,3.6.2.M20110203-1100,"org.eclipse.ui.edit.copy",1383547421806
executed,command,org.eclipse.ui,3.6.2.M20110203-1100,"org.eclipse.ui.edit.copy",1383547422007
executed,command,org.eclipse.ui,3.6.2.M20110203-1100,"org.eclipse.ui.edit.text.contentAssist.proposals",1383547432924
executed,command,org.eclipse.ui,3.6.2.M20110203-1100,"org.eclipse.ui.edit.delete",1383547437220
executed,command,org.eclipse.ui,3.6.2.M20110203-1100,"org.eclipse.ui.edit.paste",1383547438694
executed,command,org.eclipse.ui,3.6.2.M20110203-1100,"org.eclipse.ui.file.save",1383547447272
deactivated,workbench,org.eclipse.ui.workbench,3.6.2.M20110210-1200,"",1383547447713
activated,workbench,org.eclipse.ui.workbench,3.6.2.M20110210-1200,"",1383547452732
executed,command,org.eclipse.ui,3.6.2.M20110203-1100,"org.eclipse.ui.edit.copy",1383547464540
executed,command,org.eclipse.ui,3.6.2.M20110203-1100,"org.eclipse.ui.edit.copy",1383547467738
executed,command,org.eclipse.ui,3.6.2.M20110203-1100,"org.eclipse.ui.edit.copy",1383547473852
executed,command,org.eclipse.ui,3.6.2.M20110203-1100,"org.eclipse.ui.edit.copy",1383547474086
executed,command,org.eclipse.ui,3.6.2.M20110203-1100,"org.eclipse.ui.edit.copy",1383547475969
executed,command,org.eclipse.ui,3.6.2.M20110203-1100,"org.eclipse.ui.edit.paste",1383547479502
executed,command,org.eclipse.ui,3.6.2.M20110203-1100,"org.eclipse.ui.file.save",1383547479922
deactivated,workbench,org.eclipse.ui.workbench,3.6.2.M20110210-1200,"",1383547483608
activated,workbench,org.eclipse.ui.workbench,3.6.2.M20110210-1200,"",1383547505168
activated,editor,org.eclipse.jst.jsp.ui,1.1.503.v201101262228,"org.eclipse.jst.jsp.core.jspsource.source",1383547518167
deactivated,workbench,org.eclipse.ui.workbench,3.6.2.M20110210-1200,"",1383547568595
activated,workbench,org.eclipse.ui.workbench,3.6.2.M20110210-1200,"",1383547596331
activated,editor,org.eclipse.jst.jsp.ui,1.1.503.v201101262228,"org.eclipse.jst.jsp.core.jspsource.source",1383547601227
deactivated,workbench,org.eclipse.ui.workbench,3.6.2.M20110210-1200,"",1383547608882
activated,workbench,org.eclipse.ui.workbench,3.6.2.M20110210-1200,"",1383547611764
executed,command,org.eclipse.ui.workbench.texteditor,3.6.1.r361_v20100714-0800,"org.eclipse.ui.edit.text.goto.lineEnd",1383547619586
executed,command,org.eclipse.ui,3.6.2.M20110203-1100,"org.eclipse.ui.edit.text.contentAssist.proposals",1383547628081
executed,command,org.eclipse.ui,3.6.2.M20110203-1100,"org.eclipse.ui.edit.delete",1383547631846
executed,command,org.eclipse.ui,3.6.2.M20110203-1100,"org.eclipse.ui.edit.copy",1383547643745
executed,command,org.eclipse.ui,3.6.2.M20110203-1100,"org.eclipse.ui.edit.paste",1383547644559
executed,command,org.eclipse.ui,3.6.2.M20110203-1100,"org.eclipse.ui.edit.copy",1383547646582
executed,command,org.eclipse.ui,3.6.2.M20110203-1100,"org.eclipse.ui.edit.undo",1383547647403
executed,command,org.eclipse.ui,3.6.2.M20110203-1100,"org.eclipse.ui.edit.copy",1383547649706
executed,command,org.eclipse.ui,3.6.2.M20110203-1100,"org.eclipse.ui.edit.paste",1383547650396
executed,command,org.eclipse.ui,3.6.2.M20110203-1100,"org.eclipse.ui.file.save",1383547651046
executed,command,org.eclipse.ui,3.6.2.M20110203-1100,"org.eclipse.ui.edit.copy",1383547653062
executed,command,org.eclipse.ui,3.6.2.M20110203-1100,"org.eclipse.ui.edit.paste",1383547654092
deactivated,workbench,org.eclipse.ui.workbench,3.6.2.M20110210-1200,"",1383547660432
activated,workbench,org.eclipse.ui.workbench,3.6.2.M20110210-1200,"",1383547661416
deactivated,workbench,org.eclipse.ui.workbench,3.6.2.M20110210-1200,"",1383547661606
activated,workbench,org.eclipse.ui.workbench,3.6.2.M20110210-1200,"",1383547664272
executed,command,org.eclipse.ui,3.6.2.M20110203-1100,"org.eclipse.ui.edit.copy",1383547675007
executed,command,org.eclipse.ui,3.6.2.M20110203-1100,"org.eclipse.ui.edit.paste",1383547677765
executed,command,org.eclipse.ui,3.6.2.M20110203-1100,"org.eclipse.ui.edit.text.contentAssist.proposals",1383547681216
executed,command,org.eclipse.ui,3.6.2.M20110203-1100,"org.eclipse.ui.file.save",1383547689495
executed,command,org.eclipse.ui.workbench.texteditor,3.6.1.r361_v20100714-0800,"org.eclipse.ui.edit.text.goto.lineEnd",1383547693929
executed,command,org.eclipse.ui,3.6.2.M20110203-1100,"org.eclipse.ui.file.save",1383547695822
executed,command,org.eclipse.ui,3.6.2.M20110203-1100,"org.eclipse.ui.edit.delete",1383547717202
executed,command,org.eclipse.ui,3.6.2.M20110203-1100,"org.eclipse.ui.file.save",1383547717540
deactivated,workbench,org.eclipse.ui.workbench,3.6.2.M20110210-1200,"",1383547717802
activated,workbench,org.eclipse.ui.workbench,3.6.2.M20110210-1200,"",1383547718493
deactivated,workbench,org.eclipse.ui.workbench,3.6.2.M20110210-1200,"",1383547720072
activated,workbench,org.eclipse.ui.workbench,3.6.2.M20110210-1200,"",1383547724199
executed,command,org.eclipse.ui,3.6.2.M20110203-1100,"org.eclipse.ui.file.save",1383547729887
deactivated,workbench,org.eclipse.ui.workbench,3.6.2.M20110210-1200,"",1383547730158
activated,workbench,org.eclipse.ui.workbench,3.6.2.M20110210-1200,"",1383547732873
deactivated,workbench,org.eclipse.ui.workbench,3.6.2.M20110210-1200,"",1383547733287
activated,workbench,org.eclipse.ui.workbench,3.6.2.M20110210-1200,"",1383547734134
deactivated,workbench,org.eclipse.ui.workbench,3.6.2.M20110210-1200,"",1383547737042
activated,workbench,org.eclipse.ui.workbench,3.6.2.M20110210-1200,"",1383547785792
deactivated,workbench,org.eclipse.ui.workbench,3.6.2.M20110210-1200,"",1383547786039
activated,workbench,org.eclipse.ui.workbench,3.6.2.M20110210-1200,"",1383547787817
executed,command,org.eclipse.ui,3.6.2.M20110203-1100,"org.eclipse.ui.edit.paste",1383547791998
executed,command,org.eclipse.ui,3.6.2.M20110203-1100,"org.eclipse.ui.file.save",1383547792419
executed,command,org.eclipse.ui,3.6.2.M20110203-1100,"org.eclipse.ui.file.save",1383547801259
executed,command,org.eclipse.ui,3.6.2.M20110203-1100,"org.eclipse.ui.edit.copy",1383547806661
executed,command,org.eclipse.ui,3.6.2.M20110203-1100,"org.eclipse.ui.file.save",1383547819127
deactivated,workbench,org.eclipse.ui.workbench,3.6.2.M20110210-1200,"",1383547823926
activated,workbench,org.eclipse.ui.workbench,3.6.2.M20110210-1200,"",1383547826592
executed,command,org.eclipse.ui,3.6.2.M20110203-1100,"org.eclipse.ui.file.save",1383547834425
deactivated,workbench,org.eclipse.ui.workbench,3.6.2.M20110210-1200,"",1383547834838
activated,workbench,org.eclipse.ui.workbench,3.6.2.M20110210-1200,"",1383547837724
deactivated,workbench,org.eclipse.ui.workbench,3.6.2.M20110210-1200,"",1383547846913
activated,workbench,org.eclipse.ui.workbench,3.6.2.M20110210-1200,"",1383547851270
deactivated,workbench,org.eclipse.ui.workbench,3.6.2.M20110210-1200,"",1383547851438
activated,workbench,org.eclipse.ui.workbench,3.6.2.M20110210-1200,"",1383547862280
executed,command,org.eclipse.ui,3.6.2.M20110203-1100,"org.eclipse.ui.file.save",1383547867538
executed,command,org.eclipse.ui,3.6.2.M20110203-1100,"org.eclipse.ui.edit.copy",1383547884888
opened,editor,org.eclipse.wst.jsdt.ui,1.1.4.v201102160540,"org.eclipse.wst.jsdt.ui.ClassFileEditor",1383547888656
activated,editor,org.eclipse.wst.jsdt.ui,1.1.4.v201102160540,"org.eclipse.wst.jsdt.ui.ClassFileEditor",1383547888715
activated,editor,org.eclipse.jst.jsp.ui,1.1.503.v201101262228,"org.eclipse.jst.jsp.core.jspsource.source",1383547891015
closed,editor,org.eclipse.wst.jsdt.ui,1.1.4.v201102160540,"org.eclipse.wst.jsdt.ui.ClassFileEditor",1383547891015
executed,command,org.eclipse.ui,3.6.2.M20110203-1100,"org.eclipse.ui.edit.paste",1383547892615
executed,command,org.eclipse.ui,3.6.2.M20110203-1100,"org.eclipse.ui.file.save",1383547893189
executed,command,org.eclipse.ui,3.6.2.M20110203-1100,"org.eclipse.ui.file.save",1383547897122
deactivated,workbench,org.eclipse.ui.workbench,3.6.2.M20110210-1200,"",1383547898581
activated,workbench,org.eclipse.ui.workbench,3.6.2.M20110210-1200,"",1383547901887
executed,command,org.eclipse.ui,3.6.2.M20110203-1100,"org.eclipse.ui.file.save",1383547916678
deactivated,workbench,org.eclipse.ui.workbench,3.6.2.M20110210-1200,"",1383547916981
activated,workbench,org.eclipse.ui.workbench,3.6.2.M20110210-1200,"",1383547919383
executed,command,org.eclipse.ui,3.6.2.M20110203-1100,"org.eclipse.ui.file.save",1383547920371
deactivated,workbench,org.eclipse.ui.workbench,3.6.2.M20110210-1200,"",1383547920686
activated,workbench,org.eclipse.ui.workbench,3.6.2.M20110210-1200,"",1383547924030
executed,command,org.eclipse.ui,3.6.2.M20110203-1100,"org.eclipse.ui.file.save",1383547925538
deactivated,workbench,org.eclipse.ui.workbench,3.6.2.M20110210-1200,"",1383547928417
activated,workbench,org.eclipse.ui.workbench,3.6.2.M20110210-1200,"",1383547934131
activated,view,org.eclipse.ui.console,3.5.0.v20100526,"org.eclipse.ui.console.ConsoleView",1383547934141
activated,editor,org.eclipse.jst.jsp.ui,1.1.503.v201101262228,"org.eclipse.jst.jsp.core.jspsource.source",1383547946291
executed,command,org.eclipse.ui.workbench.texteditor,3.6.1.r361_v20100714-0800,"org.eclipse.ui.edit.text.delete.line",1383547949105
executed,command,org.eclipse.ui,3.6.2.M20110203-1100,"org.eclipse.ui.file.save",1383547949187
executed,command,org.eclipse.ui,3.6.2.M20110203-1100,"org.eclipse.ui.edit.undo",1383547950100
executed,command,org.eclipse.ui,3.6.2.M20110203-1100,"org.eclipse.ui.file.save",1383547950689
deactivated,workbench,org.eclipse.ui.workbench,3.6.2.M20110210-1200,"",1383547951062
activated,workbench,org.eclipse.ui.workbench,3.6.2.M20110210-1200,"",1383547959314
executed,command,org.eclipse.ui,3.6.2.M20110203-1100,"org.eclipse.ui.edit.copy",1383547964134
executed,command,org.eclipse.wst.sse.ui,1.2.3.v201102102045,"org.eclipse.wst.sse.ui.add.block.comment",1383547967734
executed,command,org.eclipse.ui,3.6.2.M20110203-1100,"org.eclipse.ui.file.save",1383547968009
deactivated,workbench,org.eclipse.ui.workbench,3.6.2.M20110210-1200,"",1383547968451
activated,workbench,org.eclipse.ui.workbench,3.6.2.M20110210-1200,"",1383547971122
executed,command,org.eclipse.ui,3.6.2.M20110203-1100,"org.eclipse.ui.edit.copy",1383547981713
executed,command,org.eclipse.ui,3.6.2.M20110203-1100,"org.eclipse.ui.edit.copy",1383547981951
executed,command,org.eclipse.ui,3.6.2.M20110203-1100,"org.eclipse.ui.edit.copy",1383547982124
executed,command,org.eclipse.ui,3.6.2.M20110203-1100,"org.eclipse.ui.edit.paste",1383547989488
executed,command,org.eclipse.ui,3.6.2.M20110203-1100,"org.eclipse.ui.file.save",1383547989981
executed,command,org.eclipse.ui,3.6.2.M20110203-1100,"org.eclipse.ui.edit.delete",1383548006286
executed,command,org.eclipse.ui,3.6.2.M20110203-1100,"org.eclipse.ui.file.save",1383548006614
executed,command,org.eclipse.ui,3.6.2.M20110203-1100,"org.eclipse.ui.file.save",1383548008230
deactivated,workbench,org.eclipse.ui.workbench,3.6.2.M20110210-1200,"",1383548008693
activated,workbench,org.eclipse.ui.workbench,3.6.2.M20110210-1200,"",1383548011629
executed,command,org.eclipse.ui,3.6.2.M20110203-1100,"org.eclipse.ui.edit.undo",1383548012725
executed,command,org.eclipse.ui,3.6.2.M20110203-1100,"org.eclipse.ui.edit.undo",1383548012997
executed,command,org.eclipse.ui,3.6.2.M20110203-1100,"org.eclipse.ui.edit.undo",1383548013491
executed,command,org.eclipse.ui,3.6.2.M20110203-1100,"org.eclipse.ui.edit.undo",1383548013507
executed,command,org.eclipse.ui,3.6.2.M20110203-1100,"org.eclipse.ui.edit.undo",1383548013521
executed,command,org.eclipse.ui,3.6.2.M20110203-1100,"org.eclipse.ui.edit.undo",1383548013540
executed,command,org.eclipse.ui,3.6.2.M20110203-1100,"org.eclipse.ui.edit.undo",1383548013594
executed,command,org.eclipse.ui,3.6.2.M20110203-1100,"org.eclipse.ui.edit.undo",1383548013603
executed,command,org.eclipse.ui,3.6.2.M20110203-1100,"org.eclipse.ui.edit.undo",1383548013657
executed,command,org.eclipse.ui,3.6.2.M20110203-1100,"org.eclipse.ui.edit.undo",1383548013667
executed,command,org.eclipse.ui,3.6.2.M20110203-1100,"org.eclipse.ui.edit.undo",1383548013918
executed,command,org.eclipse.ui,3.6.2.M20110203-1100,"org.eclipse.ui.edit.undo",1383548014356
executed,command,org.eclipse.ui,3.6.2.M20110203-1100,"org.eclipse.ui.edit.undo",1383548014369
executed,command,org.eclipse.ui,3.6.2.M20110203-1100,"org.eclipse.ui.edit.undo",1383548014413
executed,command,org.eclipse.ui,3.6.2.M20110203-1100,"org.eclipse.ui.edit.undo",1383548014469
executed,command,org.eclipse.ui,3.6.2.M20110203-1100,"org.eclipse.ui.edit.undo",1383548014515
executed,command,org.eclipse.ui,3.6.2.M20110203-1100,"org.eclipse.ui.edit.undo",1383548014533
executed,command,org.eclipse.ui,3.6.2.M20110203-1100,"org.eclipse.ui.edit.undo",1383548015060
executed,command,org.eclipse.ui,3.6.2.M20110203-1100,"org.eclipse.ui.edit.undo",1383548015486
executed,command,org.eclipse.ui,3.6.2.M20110203-1100,"org.eclipse.ui.edit.undo",1383548015521
executed,command,org.eclipse.ui,3.6.2.M20110203-1100,"org.eclipse.ui.edit.undo",1383548015533
executed,command,org.eclipse.ui,3.6.2.M20110203-1100,"org.eclipse.ui.edit.undo",1383548016442
executed,command,org.eclipse.ui,3.6.2.M20110203-1100,"org.eclipse.ui.edit.undo",1383548016877
executed,command,org.eclipse.ui,3.6.2.M20110203-1100,"org.eclipse.ui.edit.undo",1383548016907
executed,command,org.eclipse.ui,3.6.2.M20110203-1100,"org.eclipse.ui.edit.undo",1383548016960
executed,command,org.eclipse.ui,3.6.2.M20110203-1100,"org.eclipse.ui.edit.undo",1383548017024
executed,command,org.eclipse.ui,3.6.2.M20110203-1100,"org.eclipse.ui.edit.undo",1383548017077
executed,command,org.eclipse.ui,3.6.2.M20110203-1100,"org.eclipse.ui.edit.undo",1383548017092
executed,command,org.eclipse.ui,3.6.2.M20110203-1100,"org.eclipse.ui.edit.undo",1383548017162
executed,command,org.eclipse.ui,3.6.2.M20110203-1100,"org.eclipse.ui.edit.undo",1383548017174
executed,command,org.eclipse.ui,3.6.2.M20110203-1100,"org.eclipse.ui.edit.redo",1383548018554
