<?xml version="1.0" encoding="UTF-8"?>
<session version="1.0">
<refactoring accessors="true" comment="Delete element from project &apos;sample&apos;&#x0D;&#x0A;- Original project: &apos;sample&apos;&#x0D;&#x0A;- Original element: &apos;sample.java&apos;" description="Delete element" element1="/src&lt;{sample.java" elements="1" flags="589830" id="org.eclipse.jdt.ui.delete" resources="0" stamp="1392092743998" subPackages="false" version="1.0"/>
</session>